^D:\LABS\4 YR\DIPLOMA\LIFE2.0\LIFE2.0\DEBUG\GPU.OBJ|D:\LABS\4 YR\DIPLOMA\LIFE2.0\LIFE2.0\DEBUG\GUI.OBJ|D:\LABS\4 YR\DIPLOMA\LIFE2.0\LIFE2.0\DEBUG\LIFE2.0.OBJ|D:\LABS\4 YR\DIPLOMA\LIFE2.0\LIFE2.0\DEBUG\LOGIC.OBJ
C:\WINDOWS\GLOBALIZATION\SORTING\SORTDEFAULT.NLS
C:\WINDOWS\SYSTEM32\C_1252.NLS
D:\LABS\4 YR\DIPLOMA\LIFE2.0\SFML\LIB\SFML-SYSTEM-D.LIB
D:\LABS\4 YR\DIPLOMA\LIFE2.0\SFML\LIB\SFML-GRAPHICS-D.LIB
D:\LABS\4 YR\DIPLOMA\LIFE2.0\SFML\LIB\SFML-WINDOW-D.LIB
D:\LABS\4 YR\DIPLOMA\LIFE2.0\OPENCL\LIB\OPENCL.LIB
C:\PROGRAM FILES (X86)\WINDOWS KITS\8.1\LIB\WINV6.3\UM\X86\KERNEL32.LIB
C:\PROGRAM FILES (X86)\WINDOWS KITS\8.1\LIB\WINV6.3\UM\X86\USER32.LIB
C:\PROGRAM FILES (X86)\WINDOWS KITS\8.1\LIB\WINV6.3\UM\X86\GDI32.LIB
C:\PROGRAM FILES (X86)\WINDOWS KITS\8.1\LIB\WINV6.3\UM\X86\WINSPOOL.LIB
C:\PROGRAM FILES (X86)\WINDOWS KITS\8.1\LIB\WINV6.3\UM\X86\COMDLG32.LIB
C:\PROGRAM FILES (X86)\WINDOWS KITS\8.1\LIB\WINV6.3\UM\X86\ADVAPI32.LIB
C:\PROGRAM FILES (X86)\WINDOWS KITS\8.1\LIB\WINV6.3\UM\X86\SHELL32.LIB
C:\PROGRAM FILES (X86)\WINDOWS KITS\8.1\LIB\WINV6.3\UM\X86\OLE32.LIB
C:\PROGRAM FILES (X86)\WINDOWS KITS\8.1\LIB\WINV6.3\UM\X86\OLEAUT32.LIB
C:\PROGRAM FILES (X86)\WINDOWS KITS\8.1\LIB\WINV6.3\UM\X86\UUID.LIB
C:\PROGRAM FILES (X86)\WINDOWS KITS\8.1\LIB\WINV6.3\UM\X86\ODBC32.LIB
C:\PROGRAM FILES (X86)\WINDOWS KITS\8.1\LIB\WINV6.3\UM\X86\ODBCCP32.LIB
D:\LABS\4 YR\DIPLOMA\LIFE2.0\LIFE2.0\DEBUG\GPU.OBJ
D:\LABS\4 YR\DIPLOMA\LIFE2.0\LIFE2.0\DEBUG\GUI.OBJ
D:\LABS\4 YR\DIPLOMA\LIFE2.0\LIFE2.0\DEBUG\LIFE2.0.OBJ
D:\LABS\4 YR\DIPLOMA\LIFE2.0\LIFE2.0\DEBUG\LOGIC.OBJ
C:\PROGRAM FILES (X86)\MICROSOFT VISUAL STUDIO 14.0\VC\LIB\MSVCPRTD.LIB
C:\PROGRAM FILES (X86)\MICROSOFT VISUAL STUDIO 14.0\VC\LIB\MSVCRTD.LIB
C:\PROGRAM FILES (X86)\MICROSOFT VISUAL STUDIO 14.0\VC\LIB\OLDNAMES.LIB
C:\PROGRAM FILES (X86)\MICROSOFT VISUAL STUDIO 14.0\VC\LIB\VCRUNTIMED.LIB
C:\PROGRAM FILES (X86)\WINDOWS KITS\10\LIB\10.0.10240.0\UCRT\X86\UCRTD.LIB
C:\PROGRAM FILES (X86)\WINDOWS KITS\8.1\BIN\X86\RC.EXE
C:\PROGRAM FILES (X86)\MICROSOFT VISUAL STUDIO 14.0\VC\BIN\CVTRES.EXE
C:\WINDOWS\SYSTEM32\TZRES.DLL
