^D:\LABS\4 YR\DIPLOMA\LIFE2.0\LIFE2.0\TIMETEST.CPP
D:\LABS\4 YR\DIPLOMA\LIFE2.0\LIFE2.0\TIMETEST.H
C:\PROGRAM FILES (X86)\MICROSOFT VISUAL STUDIO 14.0\VC\INCLUDE\STRING
C:\PROGRAM FILES (X86)\MICROSOFT VISUAL STUDIO 14.0\VC\INCLUDE\ISTREAM
C:\PROGRAM FILES (X86)\MICROSOFT VISUAL STUDIO 14.0\VC\INCLUDE\OSTREAM
C:\PROGRAM FILES (X86)\MICROSOFT VISUAL STUDIO 14.0\VC\INCLUDE\IOS
C:\PROGRAM FILES (X86)\MICROSOFT VISUAL STUDIO 14.0\VC\INCLUDE\XLOCNUM
C:\PROGRAM FILES (X86)\MICROSOFT VISUAL STUDIO 14.0\VC\INCLUDE\CLIMITS
C:\PROGRAM FILES (X86)\MICROSOFT VISUAL STUDIO 14.0\VC\INCLUDE\YVALS.H
C:\PROGRAM FILES (X86)\MICROSOFT VISUAL STUDIO 14.0\VC\INCLUDE\XKEYCHECK.H
C:\PROGRAM FILES (X86)\MICROSOFT VISUAL STUDIO 14.0\VC\INCLUDE\CRTDEFS.H
C:\PROGRAM FILES (X86)\MICROSOFT VISUAL STUDIO 14.0\VC\INCLUDE\VCRUNTIME.H
C:\PROGRAM FILES (X86)\MICROSOFT VISUAL STUDIO 14.0\VC\INCLUDE\SAL.H
C:\PROGRAM FILES (X86)\MICROSOFT VISUAL STUDIO 14.0\VC\INCLUDE\CONCURRENCYSAL.H
C:\PROGRAM FILES (X86)\MICROSOFT VISUAL STUDIO 14.0\VC\INCLUDE\VADEFS.H
C:\PROGRAM FILES (X86)\WINDOWS KITS\10\INCLUDE\10.0.10240.0\UCRT\CORECRT.H
C:\PROGRAM FILES (X86)\MICROSOFT VISUAL STUDIO 14.0\VC\INCLUDE\USE_ANSI.H
C:\PROGRAM FILES (X86)\MICROSOFT VISUAL STUDIO 14.0\VC\INCLUDE\LIMITS.H
C:\PROGRAM FILES (X86)\MICROSOFT VISUAL STUDIO 14.0\VC\INCLUDE\CMATH
C:\PROGRAM FILES (X86)\WINDOWS KITS\10\INCLUDE\10.0.10240.0\UCRT\MATH.H
C:\PROGRAM FILES (X86)\MICROSOFT VISUAL STUDIO 14.0\VC\INCLUDE\XTGMATH.H
C:\PROGRAM FILES (X86)\MICROSOFT VISUAL STUDIO 14.0\VC\INCLUDE\XTR1COMMON
C:\PROGRAM FILES (X86)\MICROSOFT VISUAL STUDIO 14.0\VC\INCLUDE\CSTDLIB
C:\PROGRAM FILES (X86)\WINDOWS KITS\10\INCLUDE\10.0.10240.0\UCRT\STDLIB.H
C:\PROGRAM FILES (X86)\WINDOWS KITS\10\INCLUDE\10.0.10240.0\UCRT\CORECRT_MALLOC.H
C:\PROGRAM FILES (X86)\WINDOWS KITS\10\INCLUDE\10.0.10240.0\UCRT\CORECRT_SEARCH.H
C:\PROGRAM FILES (X86)\WINDOWS KITS\10\INCLUDE\10.0.10240.0\UCRT\STDDEF.H
C:\PROGRAM FILES (X86)\WINDOWS KITS\10\INCLUDE\10.0.10240.0\UCRT\CORECRT_WSTDLIB.H
C:\PROGRAM FILES (X86)\MICROSOFT VISUAL STUDIO 14.0\VC\INCLUDE\CSTDIO
C:\PROGRAM FILES (X86)\WINDOWS KITS\10\INCLUDE\10.0.10240.0\UCRT\STDIO.H
C:\PROGRAM FILES (X86)\WINDOWS KITS\10\INCLUDE\10.0.10240.0\UCRT\CORECRT_WSTDIO.H
C:\PROGRAM FILES (X86)\WINDOWS KITS\10\INCLUDE\10.0.10240.0\UCRT\CORECRT_STDIO_CONFIG.H
C:\PROGRAM FILES (X86)\MICROSOFT VISUAL STUDIO 14.0\VC\INCLUDE\STREAMBUF
C:\PROGRAM FILES (X86)\MICROSOFT VISUAL STUDIO 14.0\VC\INCLUDE\XIOSBASE
C:\PROGRAM FILES (X86)\MICROSOFT VISUAL STUDIO 14.0\VC\INCLUDE\XLOCALE
C:\PROGRAM FILES (X86)\MICROSOFT VISUAL STUDIO 14.0\VC\INCLUDE\CSTRING
C:\PROGRAM FILES (X86)\WINDOWS KITS\10\INCLUDE\10.0.10240.0\UCRT\STRING.H
C:\PROGRAM FILES (X86)\WINDOWS KITS\10\INCLUDE\10.0.10240.0\UCRT\CORECRT_MEMORY.H
C:\PROGRAM FILES (X86)\WINDOWS KITS\10\INCLUDE\10.0.10240.0\UCRT\CORECRT_MEMCPY_S.H
C:\PROGRAM FILES (X86)\WINDOWS KITS\10\INCLUDE\10.0.10240.0\UCRT\ERRNO.H
C:\PROGRAM FILES (X86)\MICROSOFT VISUAL STUDIO 14.0\VC\INCLUDE\VCRUNTIME_STRING.H
C:\PROGRAM FILES (X86)\WINDOWS KITS\10\INCLUDE\10.0.10240.0\UCRT\CORECRT_WSTRING.H
C:\PROGRAM FILES (X86)\MICROSOFT VISUAL STUDIO 14.0\VC\INCLUDE\STDEXCEPT
C:\PROGRAM FILES (X86)\MICROSOFT VISUAL STUDIO 14.0\VC\INCLUDE\EXCEPTION
C:\PROGRAM FILES (X86)\MICROSOFT VISUAL STUDIO 14.0\VC\INCLUDE\TYPE_TRAITS
C:\PROGRAM FILES (X86)\MICROSOFT VISUAL STUDIO 14.0\VC\INCLUDE\XSTDDEF
C:\PROGRAM FILES (X86)\MICROSOFT VISUAL STUDIO 14.0\VC\INCLUDE\CSTDDEF
C:\PROGRAM FILES (X86)\MICROSOFT VISUAL STUDIO 14.0\VC\INCLUDE\INITIALIZER_LIST
C:\PROGRAM FILES (X86)\WINDOWS KITS\10\INCLUDE\10.0.10240.0\UCRT\MALLOC.H
C:\PROGRAM FILES (X86)\MICROSOFT VISUAL STUDIO 14.0\VC\INCLUDE\VCRUNTIME_EXCEPTION.H
C:\PROGRAM FILES (X86)\MICROSOFT VISUAL STUDIO 14.0\VC\INCLUDE\EH.H
C:\PROGRAM FILES (X86)\WINDOWS KITS\10\INCLUDE\10.0.10240.0\UCRT\CORECRT_TERMINATE.H
C:\PROGRAM FILES (X86)\MICROSOFT VISUAL STUDIO 14.0\VC\INCLUDE\XSTRING
C:\PROGRAM FILES (X86)\MICROSOFT VISUAL STUDIO 14.0\VC\INCLUDE\XMEMORY0
C:\PROGRAM FILES (X86)\MICROSOFT VISUAL STUDIO 14.0\VC\INCLUDE\CSTDINT
C:\PROGRAM FILES (X86)\MICROSOFT VISUAL STUDIO 14.0\VC\INCLUDE\STDINT.H
C:\PROGRAM FILES (X86)\MICROSOFT VISUAL STUDIO 14.0\VC\INCLUDE\LIMITS
C:\PROGRAM FILES (X86)\MICROSOFT VISUAL STUDIO 14.0\VC\INCLUDE\YMATH.H
C:\PROGRAM FILES (X86)\MICROSOFT VISUAL STUDIO 14.0\VC\INCLUDE\CFLOAT
C:\PROGRAM FILES (X86)\WINDOWS KITS\10\INCLUDE\10.0.10240.0\UCRT\FLOAT.H
C:\PROGRAM FILES (X86)\MICROSOFT VISUAL STUDIO 14.0\VC\INCLUDE\CWCHAR
C:\PROGRAM FILES (X86)\WINDOWS KITS\10\INCLUDE\10.0.10240.0\UCRT\WCHAR.H
C:\PROGRAM FILES (X86)\WINDOWS KITS\10\INCLUDE\10.0.10240.0\UCRT\CORECRT_WCONIO.H
C:\PROGRAM FILES (X86)\WINDOWS KITS\10\INCLUDE\10.0.10240.0\UCRT\CORECRT_WCTYPE.H
C:\PROGRAM FILES (X86)\WINDOWS KITS\10\INCLUDE\10.0.10240.0\UCRT\CORECRT_WDIRECT.H
C:\PROGRAM FILES (X86)\WINDOWS KITS\10\INCLUDE\10.0.10240.0\UCRT\CORECRT_WIO.H
C:\PROGRAM FILES (X86)\WINDOWS KITS\10\INCLUDE\10.0.10240.0\UCRT\CORECRT_SHARE.H
C:\PROGRAM FILES (X86)\WINDOWS KITS\10\INCLUDE\10.0.10240.0\UCRT\CORECRT_WPROCESS.H
C:\PROGRAM FILES (X86)\WINDOWS KITS\10\INCLUDE\10.0.10240.0\UCRT\CORECRT_WTIME.H
C:\PROGRAM FILES (X86)\WINDOWS KITS\10\INCLUDE\10.0.10240.0\UCRT\SYS\STAT.H
C:\PROGRAM FILES (X86)\WINDOWS KITS\10\INCLUDE\10.0.10240.0\UCRT\SYS\TYPES.H
C:\PROGRAM FILES (X86)\MICROSOFT VISUAL STUDIO 14.0\VC\INCLUDE\NEW
C:\PROGRAM FILES (X86)\MICROSOFT VISUAL STUDIO 14.0\VC\INCLUDE\VCRUNTIME_NEW.H
C:\PROGRAM FILES (X86)\MICROSOFT VISUAL STUDIO 14.0\VC\INCLUDE\XUTILITY
C:\PROGRAM FILES (X86)\MICROSOFT VISUAL STUDIO 14.0\VC\INCLUDE\UTILITY
C:\PROGRAM FILES (X86)\MICROSOFT VISUAL STUDIO 14.0\VC\INCLUDE\IOSFWD
C:\PROGRAM FILES (X86)\WINDOWS KITS\10\INCLUDE\10.0.10240.0\UCRT\CRTDBG.H
C:\PROGRAM FILES (X86)\MICROSOFT VISUAL STUDIO 14.0\VC\INCLUDE\VCRUNTIME_NEW_DEBUG.H
C:\PROGRAM FILES (X86)\MICROSOFT VISUAL STUDIO 14.0\VC\INCLUDE\XATOMIC0.H
C:\PROGRAM FILES (X86)\MICROSOFT VISUAL STUDIO 14.0\VC\INCLUDE\INTRIN.H
C:\PROGRAM FILES (X86)\MICROSOFT VISUAL STUDIO 14.0\VC\INCLUDE\SETJMP.H
C:\PROGRAM FILES (X86)\MICROSOFT VISUAL STUDIO 14.0\VC\INCLUDE\IMMINTRIN.H
C:\PROGRAM FILES (X86)\MICROSOFT VISUAL STUDIO 14.0\VC\INCLUDE\WMMINTRIN.H
C:\PROGRAM FILES (X86)\MICROSOFT VISUAL STUDIO 14.0\VC\INCLUDE\NMMINTRIN.H
C:\PROGRAM FILES (X86)\MICROSOFT VISUAL STUDIO 14.0\VC\INCLUDE\SMMINTRIN.H
C:\PROGRAM FILES (X86)\MICROSOFT VISUAL STUDIO 14.0\VC\INCLUDE\TMMINTRIN.H
C:\PROGRAM FILES (X86)\MICROSOFT VISUAL STUDIO 14.0\VC\INCLUDE\PMMINTRIN.H
C:\PROGRAM FILES (X86)\MICROSOFT VISUAL STUDIO 14.0\VC\INCLUDE\EMMINTRIN.H
C:\PROGRAM FILES (X86)\MICROSOFT VISUAL STUDIO 14.0\VC\INCLUDE\XMMINTRIN.H
C:\PROGRAM FILES (X86)\MICROSOFT VISUAL STUDIO 14.0\VC\INCLUDE\MMINTRIN.H
C:\PROGRAM FILES (X86)\MICROSOFT VISUAL STUDIO 14.0\VC\INCLUDE\AMMINTRIN.H
C:\PROGRAM FILES (X86)\MICROSOFT VISUAL STUDIO 14.0\VC\INCLUDE\MM3DNOW.H
C:\PROGRAM FILES (X86)\MICROSOFT VISUAL STUDIO 14.0\VC\INCLUDE\TYPEINFO
C:\PROGRAM FILES (X86)\MICROSOFT VISUAL STUDIO 14.0\VC\INCLUDE\VCRUNTIME_TYPEINFO.H
C:\PROGRAM FILES (X86)\MICROSOFT VISUAL STUDIO 14.0\VC\INCLUDE\XLOCINFO
C:\PROGRAM FILES (X86)\MICROSOFT VISUAL STUDIO 14.0\VC\INCLUDE\XLOCINFO.H
C:\PROGRAM FILES (X86)\WINDOWS KITS\10\INCLUDE\10.0.10240.0\UCRT\CTYPE.H
C:\PROGRAM FILES (X86)\WINDOWS KITS\10\INCLUDE\10.0.10240.0\UCRT\LOCALE.H
C:\PROGRAM FILES (X86)\MICROSOFT VISUAL STUDIO 14.0\VC\INCLUDE\XFACET
C:\PROGRAM FILES (X86)\MICROSOFT VISUAL STUDIO 14.0\VC\INCLUDE\SYSTEM_ERROR
C:\PROGRAM FILES (X86)\MICROSOFT VISUAL STUDIO 14.0\VC\INCLUDE\CERRNO
C:\PROGRAM FILES (X86)\WINDOWS KITS\10\INCLUDE\10.0.10240.0\UCRT\SHARE.H
D:\LABS\4 YR\DIPLOMA\LIFE2.0\LIFE2.0\LOGIC.H
C:\PROGRAM FILES (X86)\WINDOWS KITS\8.1\INCLUDE\UM\WINDOWS.H
C:\PROGRAM FILES (X86)\WINDOWS KITS\8.1\INCLUDE\SHARED\WINAPIFAMILY.H
C:\PROGRAM FILES (X86)\WINDOWS KITS\8.1\INCLUDE\SHARED\SDKDDKVER.H
C:\PROGRAM FILES (X86)\MICROSOFT VISUAL STUDIO 14.0\VC\INCLUDE\EXCPT.H
C:\PROGRAM FILES (X86)\MICROSOFT VISUAL STUDIO 14.0\VC\INCLUDE\STDARG.H
C:\PROGRAM FILES (X86)\WINDOWS KITS\8.1\INCLUDE\SHARED\WINDEF.H
C:\PROGRAM FILES (X86)\WINDOWS KITS\8.1\INCLUDE\SHARED\MINWINDEF.H
C:\PROGRAM FILES (X86)\WINDOWS KITS\8.1\INCLUDE\SHARED\SPECSTRINGS.H
C:\PROGRAM FILES (X86)\WINDOWS KITS\8.1\INCLUDE\SHARED\SPECSTRINGS_STRICT.H
C:\PROGRAM FILES (X86)\WINDOWS KITS\8.1\INCLUDE\SHARED\SPECSTRINGS_UNDEF.H
C:\PROGRAM FILES (X86)\WINDOWS KITS\8.1\INCLUDE\SHARED\DRIVERSPECS.H
C:\PROGRAM FILES (X86)\WINDOWS KITS\8.1\INCLUDE\SHARED\SDV_DRIVERSPECS.H
C:\PROGRAM FILES (X86)\WINDOWS KITS\8.1\INCLUDE\UM\WINNT.H
C:\PROGRAM FILES (X86)\WINDOWS KITS\8.1\INCLUDE\SHARED\KERNELSPECS.H
C:\PROGRAM FILES (X86)\WINDOWS KITS\8.1\INCLUDE\SHARED\BASETSD.H
C:\PROGRAM FILES (X86)\WINDOWS KITS\8.1\INCLUDE\SHARED\GUIDDEF.H
C:\PROGRAM FILES (X86)\WINDOWS KITS\8.1\INCLUDE\SHARED\PSHPACK4.H
C:\PROGRAM FILES (X86)\WINDOWS KITS\8.1\INCLUDE\SHARED\POPPACK.H
C:\PROGRAM FILES (X86)\WINDOWS KITS\8.1\INCLUDE\SHARED\PSHPACK2.H
C:\PROGRAM FILES (X86)\WINDOWS KITS\8.1\INCLUDE\SHARED\PSHPACK8.H
C:\PROGRAM FILES (X86)\WINDOWS KITS\8.1\INCLUDE\SHARED\APISET.H
C:\PROGRAM FILES (X86)\WINDOWS KITS\8.1\INCLUDE\SHARED\KTMTYPES.H
C:\PROGRAM FILES (X86)\WINDOWS KITS\8.1\INCLUDE\UM\WINBASE.H
C:\PROGRAM FILES (X86)\WINDOWS KITS\8.1\INCLUDE\SHARED\APISETCCONV.H
C:\PROGRAM FILES (X86)\WINDOWS KITS\8.1\INCLUDE\UM\MINWINBASE.H
C:\PROGRAM FILES (X86)\WINDOWS KITS\8.1\INCLUDE\UM\PROCESSENV.H
C:\PROGRAM FILES (X86)\WINDOWS KITS\8.1\INCLUDE\UM\FILEAPI.H
C:\PROGRAM FILES (X86)\WINDOWS KITS\8.1\INCLUDE\UM\DEBUGAPI.H
C:\PROGRAM FILES (X86)\WINDOWS KITS\8.1\INCLUDE\UM\UTILAPISET.H
C:\PROGRAM FILES (X86)\WINDOWS KITS\8.1\INCLUDE\UM\HANDLEAPI.H
C:\PROGRAM FILES (X86)\WINDOWS KITS\8.1\INCLUDE\UM\ERRHANDLINGAPI.H
C:\PROGRAM FILES (X86)\WINDOWS KITS\8.1\INCLUDE\UM\FIBERSAPI.H
C:\PROGRAM FILES (X86)\WINDOWS KITS\8.1\INCLUDE\UM\NAMEDPIPEAPI.H
C:\PROGRAM FILES (X86)\WINDOWS KITS\8.1\INCLUDE\UM\PROFILEAPI.H
C:\PROGRAM FILES (X86)\WINDOWS KITS\8.1\INCLUDE\UM\HEAPAPI.H
C:\PROGRAM FILES (X86)\WINDOWS KITS\8.1\INCLUDE\UM\IOAPISET.H
C:\PROGRAM FILES (X86)\WINDOWS KITS\8.1\INCLUDE\UM\SYNCHAPI.H
C:\PROGRAM FILES (X86)\WINDOWS KITS\8.1\INCLUDE\UM\INTERLOCKEDAPI.H
C:\PROGRAM FILES (X86)\WINDOWS KITS\8.1\INCLUDE\UM\PROCESSTHREADSAPI.H
C:\PROGRAM FILES (X86)\WINDOWS KITS\8.1\INCLUDE\UM\SYSINFOAPI.H
C:\PROGRAM FILES (X86)\WINDOWS KITS\8.1\INCLUDE\UM\MEMORYAPI.H
C:\PROGRAM FILES (X86)\WINDOWS KITS\8.1\INCLUDE\UM\THREADPOOLLEGACYAPISET.H
C:\PROGRAM FILES (X86)\WINDOWS KITS\8.1\INCLUDE\UM\THREADPOOLAPISET.H
C:\PROGRAM FILES (X86)\WINDOWS KITS\8.1\INCLUDE\UM\BEMAPISET.H
C:\PROGRAM FILES (X86)\WINDOWS KITS\8.1\INCLUDE\UM\JOBAPI.H
C:\PROGRAM FILES (X86)\WINDOWS KITS\8.1\INCLUDE\UM\WOW64APISET.H
C:\PROGRAM FILES (X86)\WINDOWS KITS\8.1\INCLUDE\UM\LIBLOADERAPI.H
C:\PROGRAM FILES (X86)\WINDOWS KITS\8.1\INCLUDE\UM\SECURITYBASEAPI.H
C:\PROGRAM FILES (X86)\WINDOWS KITS\8.1\INCLUDE\UM\NAMESPACEAPI.H
C:\PROGRAM FILES (X86)\WINDOWS KITS\8.1\INCLUDE\UM\SYSTEMTOPOLOGYAPI.H
C:\PROGRAM FILES (X86)\WINDOWS KITS\8.1\INCLUDE\UM\PROCESSTOPOLOGYAPI.H
C:\PROGRAM FILES (X86)\WINDOWS KITS\8.1\INCLUDE\UM\SECURITYAPPCONTAINER.H
C:\PROGRAM FILES (X86)\WINDOWS KITS\8.1\INCLUDE\UM\REALTIMEAPISET.H
C:\PROGRAM FILES (X86)\WINDOWS KITS\8.1\INCLUDE\SHARED\WINERROR.H
C:\PROGRAM FILES (X86)\WINDOWS KITS\8.1\INCLUDE\UM\TIMEZONEAPI.H
C:\PROGRAM FILES (X86)\WINDOWS KITS\8.1\INCLUDE\UM\WINGDI.H
C:\PROGRAM FILES (X86)\WINDOWS KITS\8.1\INCLUDE\SHARED\PSHPACK1.H
C:\PROGRAM FILES (X86)\WINDOWS KITS\8.1\INCLUDE\UM\WINUSER.H
C:\PROGRAM FILES (X86)\WINDOWS KITS\8.1\INCLUDE\SHARED\TVOUT.H
C:\PROGRAM FILES (X86)\WINDOWS KITS\8.1\INCLUDE\UM\WINNLS.H
C:\PROGRAM FILES (X86)\WINDOWS KITS\8.1\INCLUDE\UM\DATETIMEAPI.H
C:\PROGRAM FILES (X86)\WINDOWS KITS\8.1\INCLUDE\UM\STRINGAPISET.H
C:\PROGRAM FILES (X86)\WINDOWS KITS\8.1\INCLUDE\UM\WINCON.H
C:\PROGRAM FILES (X86)\WINDOWS KITS\8.1\INCLUDE\UM\CONSOLEAPI.H
C:\PROGRAM FILES (X86)\WINDOWS KITS\8.1\INCLUDE\UM\WINVER.H
C:\PROGRAM FILES (X86)\WINDOWS KITS\8.1\INCLUDE\UM\VERRSRC.H
C:\PROGRAM FILES (X86)\WINDOWS KITS\8.1\INCLUDE\UM\WINREG.H
C:\PROGRAM FILES (X86)\WINDOWS KITS\8.1\INCLUDE\UM\REASON.H
C:\PROGRAM FILES (X86)\WINDOWS KITS\8.1\INCLUDE\UM\WINNETWK.H
C:\PROGRAM FILES (X86)\WINDOWS KITS\8.1\INCLUDE\SHARED\WNNC.H
C:\PROGRAM FILES (X86)\WINDOWS KITS\8.1\INCLUDE\SHARED\CDERR.H
C:\PROGRAM FILES (X86)\WINDOWS KITS\8.1\INCLUDE\UM\DDE.H
C:\PROGRAM FILES (X86)\WINDOWS KITS\8.1\INCLUDE\UM\DDEML.H
C:\PROGRAM FILES (X86)\WINDOWS KITS\8.1\INCLUDE\UM\DLGS.H
C:\PROGRAM FILES (X86)\WINDOWS KITS\8.1\INCLUDE\UM\LZEXPAND.H
C:\PROGRAM FILES (X86)\WINDOWS KITS\8.1\INCLUDE\UM\MMSYSTEM.H
C:\PROGRAM FILES (X86)\WINDOWS KITS\8.1\INCLUDE\UM\MMSYSCOM.H
C:\PROGRAM FILES (X86)\WINDOWS KITS\8.1\INCLUDE\UM\MCIAPI.H
C:\PROGRAM FILES (X86)\WINDOWS KITS\8.1\INCLUDE\UM\MMISCAPI.H
C:\PROGRAM FILES (X86)\WINDOWS KITS\8.1\INCLUDE\UM\MMISCAPI2.H
C:\PROGRAM FILES (X86)\WINDOWS KITS\8.1\INCLUDE\UM\PLAYSOUNDAPI.H
C:\PROGRAM FILES (X86)\WINDOWS KITS\8.1\INCLUDE\UM\MMEAPI.H
C:\PROGRAM FILES (X86)\WINDOWS KITS\8.1\INCLUDE\UM\TIMEAPI.H
C:\PROGRAM FILES (X86)\WINDOWS KITS\8.1\INCLUDE\UM\JOYSTICKAPI.H
C:\PROGRAM FILES (X86)\WINDOWS KITS\8.1\INCLUDE\UM\NB30.H
C:\PROGRAM FILES (X86)\WINDOWS KITS\8.1\INCLUDE\SHARED\RPC.H
C:\PROGRAM FILES (X86)\WINDOWS KITS\8.1\INCLUDE\SHARED\RPCDCE.H
C:\PROGRAM FILES (X86)\WINDOWS KITS\8.1\INCLUDE\SHARED\RPCDCEP.H
C:\PROGRAM FILES (X86)\WINDOWS KITS\8.1\INCLUDE\UM\RPCNSI.H
C:\PROGRAM FILES (X86)\WINDOWS KITS\8.1\INCLUDE\SHARED\RPCNTERR.H
C:\PROGRAM FILES (X86)\WINDOWS KITS\8.1\INCLUDE\SHARED\RPCASYNC.H
C:\PROGRAM FILES (X86)\WINDOWS KITS\8.1\INCLUDE\UM\SHELLAPI.H
C:\PROGRAM FILES (X86)\WINDOWS KITS\8.1\INCLUDE\UM\WINPERF.H
C:\PROGRAM FILES (X86)\WINDOWS KITS\8.1\INCLUDE\UM\WINSOCK.H
C:\PROGRAM FILES (X86)\WINDOWS KITS\8.1\INCLUDE\SHARED\INADDR.H
C:\PROGRAM FILES (X86)\WINDOWS KITS\8.1\INCLUDE\UM\WINCRYPT.H
C:\PROGRAM FILES (X86)\WINDOWS KITS\8.1\INCLUDE\SHARED\BCRYPT.H
C:\PROGRAM FILES (X86)\WINDOWS KITS\8.1\INCLUDE\UM\NCRYPT.H
C:\PROGRAM FILES (X86)\WINDOWS KITS\8.1\INCLUDE\UM\DPAPI.H
C:\PROGRAM FILES (X86)\WINDOWS KITS\8.1\INCLUDE\UM\WINEFS.H
C:\PROGRAM FILES (X86)\WINDOWS KITS\8.1\INCLUDE\UM\WINSCARD.H
C:\PROGRAM FILES (X86)\WINDOWS KITS\8.1\INCLUDE\SHARED\WTYPES.H
C:\PROGRAM FILES (X86)\WINDOWS KITS\8.1\INCLUDE\SHARED\RPCNDR.H
C:\PROGRAM FILES (X86)\WINDOWS KITS\8.1\INCLUDE\UM\RPCNSIP.H
C:\PROGRAM FILES (X86)\WINDOWS KITS\8.1\INCLUDE\SHARED\RPCSAL.H
C:\PROGRAM FILES (X86)\WINDOWS KITS\8.1\INCLUDE\SHARED\WTYPESBASE.H
C:\PROGRAM FILES (X86)\WINDOWS KITS\8.1\INCLUDE\UM\WINIOCTL.H
C:\PROGRAM FILES (X86)\WINDOWS KITS\8.1\INCLUDE\SHARED\WINSMCRD.H
C:\PROGRAM FILES (X86)\WINDOWS KITS\8.1\INCLUDE\UM\WINSPOOL.H
C:\PROGRAM FILES (X86)\WINDOWS KITS\8.1\INCLUDE\UM\PRSHT.H
C:\PROGRAM FILES (X86)\WINDOWS KITS\8.1\INCLUDE\UM\OLE2.H
C:\PROGRAM FILES (X86)\WINDOWS KITS\8.1\INCLUDE\UM\OBJBASE.H
C:\PROGRAM FILES (X86)\WINDOWS KITS\8.1\INCLUDE\UM\COMBASEAPI.H
C:\PROGRAM FILES (X86)\WINDOWS KITS\8.1\INCLUDE\UM\UNKNWNBASE.H
C:\PROGRAM FILES (X86)\WINDOWS KITS\8.1\INCLUDE\UM\OBJIDLBASE.H
C:\PROGRAM FILES (X86)\WINDOWS KITS\8.1\INCLUDE\UM\CGUID.H
C:\PROGRAM FILES (X86)\WINDOWS KITS\8.1\INCLUDE\UM\OBJIDL.H
C:\PROGRAM FILES (X86)\WINDOWS KITS\8.1\INCLUDE\UM\UNKNWN.H
C:\PROGRAM FILES (X86)\WINDOWS KITS\8.1\INCLUDE\UM\URLMON.H
C:\PROGRAM FILES (X86)\WINDOWS KITS\8.1\INCLUDE\UM\OLEIDL.H
C:\PROGRAM FILES (X86)\WINDOWS KITS\8.1\INCLUDE\UM\SERVPROV.H
C:\PROGRAM FILES (X86)\WINDOWS KITS\8.1\INCLUDE\UM\MSXML.H
C:\PROGRAM FILES (X86)\WINDOWS KITS\8.1\INCLUDE\UM\OAIDL.H
C:\PROGRAM FILES (X86)\WINDOWS KITS\8.1\INCLUDE\UM\PROPIDL.H
C:\PROGRAM FILES (X86)\WINDOWS KITS\8.1\INCLUDE\UM\OLEAUTO.H
C:\PROGRAM FILES (X86)\WINDOWS KITS\8.1\INCLUDE\UM\COMMDLG.H
C:\PROGRAM FILES (X86)\WINDOWS KITS\8.1\INCLUDE\SHARED\STRALIGN.H
C:\PROGRAM FILES (X86)\WINDOWS KITS\8.1\INCLUDE\UM\WINSVC.H
C:\PROGRAM FILES (X86)\WINDOWS KITS\8.1\INCLUDE\UM\MCX.H
C:\PROGRAM FILES (X86)\WINDOWS KITS\8.1\INCLUDE\UM\IMM.H
C:\PROGRAM FILES (X86)\WINDOWS KITS\8.1\INCLUDE\UM\IME_CMODES.H
D:\LABS\4 YR\DIPLOMA\LIFE2.0\LIFE2.0\GPU.H
D:\LABS\4 YR\DIPLOMA\LIFE2.0\OPENCL\INCLUDE\CL\CL.HPP
C:\PROGRAM FILES (X86)\MICROSOFT VISUAL STUDIO 14.0\VC\INCLUDE\ITERATOR
C:\PROGRAM FILES (X86)\WINDOWS KITS\8.1\INCLUDE\UM\GL\GL.H
D:\LABS\4 YR\DIPLOMA\LIFE2.0\OPENCL\INCLUDE\CL\OPENCL.H
D:\LABS\4 YR\DIPLOMA\LIFE2.0\OPENCL\INCLUDE\CL\CL.H
D:\LABS\4 YR\DIPLOMA\LIFE2.0\OPENCL\INCLUDE\CL\CL_PLATFORM.H
D:\LABS\4 YR\DIPLOMA\LIFE2.0\OPENCL\INCLUDE\CL\CL_GL.H
D:\LABS\4 YR\DIPLOMA\LIFE2.0\OPENCL\INCLUDE\CL\CL_GL_EXT.H
D:\LABS\4 YR\DIPLOMA\LIFE2.0\OPENCL\INCLUDE\CL\CL_EXT.H
C:\PROGRAM FILES (X86)\MICROSOFT VISUAL STUDIO 14.0\VC\INCLUDE\VECTOR
C:\PROGRAM FILES (X86)\MICROSOFT VISUAL STUDIO 14.0\VC\INCLUDE\XMEMORY
C:\PROGRAM FILES (X86)\MICROSOFT VISUAL STUDIO 14.0\VC\INCLUDE\FSTREAM
C:\PROGRAM FILES (X86)\MICROSOFT VISUAL STUDIO 14.0\VC\INCLUDE\CHRONO
C:\PROGRAM FILES (X86)\MICROSOFT VISUAL STUDIO 14.0\VC\INCLUDE\RATIO
C:\PROGRAM FILES (X86)\WINDOWS KITS\10\INCLUDE\10.0.10240.0\UCRT\TIME.H
C:\PROGRAM FILES (X86)\MICROSOFT VISUAL STUDIO 14.0\VC\INCLUDE\THR\XTIMEC.H
C:\PROGRAM FILES (X86)\MICROSOFT VISUAL STUDIO 14.0\VC\INCLUDE\THR\XTHRCOMMON.H
C:\PROGRAM FILES (X86)\MICROSOFT VISUAL STUDIO 14.0\VC\INCLUDE\IOSTREAM
^D:\LABS\4 YR\DIPLOMA\LIFE2.0\LIFE2.0\LOGIC.CPP
D:\LABS\4 YR\DIPLOMA\LIFE2.0\LIFE2.0\STDAFX.H
D:\LABS\4 YR\DIPLOMA\LIFE2.0\LIFE2.0\TARGETVER.H
C:\PROGRAM FILES (X86)\WINDOWS KITS\8.1\INCLUDE\SHARED\SDKDDKVER.H
C:\PROGRAM FILES (X86)\WINDOWS KITS\10\INCLUDE\10.0.10240.0\UCRT\STDIO.H
C:\PROGRAM FILES (X86)\WINDOWS KITS\10\INCLUDE\10.0.10240.0\UCRT\CORECRT.H
C:\PROGRAM FILES (X86)\MICROSOFT VISUAL STUDIO 14.0\VC\INCLUDE\VCRUNTIME.H
C:\PROGRAM FILES (X86)\MICROSOFT VISUAL STUDIO 14.0\VC\INCLUDE\SAL.H
C:\PROGRAM FILES (X86)\MICROSOFT VISUAL STUDIO 14.0\VC\INCLUDE\CONCURRENCYSAL.H
C:\PROGRAM FILES (X86)\MICROSOFT VISUAL STUDIO 14.0\VC\INCLUDE\VADEFS.H
C:\PROGRAM FILES (X86)\WINDOWS KITS\10\INCLUDE\10.0.10240.0\UCRT\CORECRT_WSTDIO.H
C:\PROGRAM FILES (X86)\WINDOWS KITS\10\INCLUDE\10.0.10240.0\UCRT\CORECRT_STDIO_CONFIG.H
C:\PROGRAM FILES (X86)\WINDOWS KITS\10\INCLUDE\10.0.10240.0\UCRT\TCHAR.H
C:\PROGRAM FILES (X86)\WINDOWS KITS\10\INCLUDE\10.0.10240.0\UCRT\WCHAR.H
C:\PROGRAM FILES (X86)\WINDOWS KITS\10\INCLUDE\10.0.10240.0\UCRT\CORECRT_MEMCPY_S.H
C:\PROGRAM FILES (X86)\WINDOWS KITS\10\INCLUDE\10.0.10240.0\UCRT\ERRNO.H
C:\PROGRAM FILES (X86)\MICROSOFT VISUAL STUDIO 14.0\VC\INCLUDE\VCRUNTIME_STRING.H
C:\PROGRAM FILES (X86)\WINDOWS KITS\10\INCLUDE\10.0.10240.0\UCRT\CORECRT_WCONIO.H
C:\PROGRAM FILES (X86)\WINDOWS KITS\10\INCLUDE\10.0.10240.0\UCRT\CORECRT_WCTYPE.H
C:\PROGRAM FILES (X86)\WINDOWS KITS\10\INCLUDE\10.0.10240.0\UCRT\CORECRT_WDIRECT.H
C:\PROGRAM FILES (X86)\WINDOWS KITS\10\INCLUDE\10.0.10240.0\UCRT\CORECRT_WIO.H
C:\PROGRAM FILES (X86)\WINDOWS KITS\10\INCLUDE\10.0.10240.0\UCRT\CORECRT_SHARE.H
C:\PROGRAM FILES (X86)\WINDOWS KITS\10\INCLUDE\10.0.10240.0\UCRT\CORECRT_WPROCESS.H
C:\PROGRAM FILES (X86)\WINDOWS KITS\10\INCLUDE\10.0.10240.0\UCRT\CORECRT_WSTDLIB.H
C:\PROGRAM FILES (X86)\WINDOWS KITS\10\INCLUDE\10.0.10240.0\UCRT\CORECRT_WSTRING.H
C:\PROGRAM FILES (X86)\WINDOWS KITS\10\INCLUDE\10.0.10240.0\UCRT\CORECRT_WTIME.H
C:\PROGRAM FILES (X86)\WINDOWS KITS\10\INCLUDE\10.0.10240.0\UCRT\SYS\STAT.H
C:\PROGRAM FILES (X86)\WINDOWS KITS\10\INCLUDE\10.0.10240.0\UCRT\SYS\TYPES.H
D:\LABS\4 YR\DIPLOMA\LIFE2.0\LIFE2.0\LOGIC.H
C:\PROGRAM FILES (X86)\WINDOWS KITS\8.1\INCLUDE\UM\WINDOWS.H
C:\PROGRAM FILES (X86)\WINDOWS KITS\8.1\INCLUDE\SHARED\WINAPIFAMILY.H
C:\PROGRAM FILES (X86)\MICROSOFT VISUAL STUDIO 14.0\VC\INCLUDE\EXCPT.H
C:\PROGRAM FILES (X86)\MICROSOFT VISUAL STUDIO 14.0\VC\INCLUDE\STDARG.H
C:\PROGRAM FILES (X86)\WINDOWS KITS\8.1\INCLUDE\SHARED\WINDEF.H
C:\PROGRAM FILES (X86)\WINDOWS KITS\8.1\INCLUDE\SHARED\MINWINDEF.H
C:\PROGRAM FILES (X86)\WINDOWS KITS\8.1\INCLUDE\SHARED\SPECSTRINGS.H
C:\PROGRAM FILES (X86)\WINDOWS KITS\8.1\INCLUDE\SHARED\SPECSTRINGS_STRICT.H
C:\PROGRAM FILES (X86)\WINDOWS KITS\8.1\INCLUDE\SHARED\SPECSTRINGS_UNDEF.H
C:\PROGRAM FILES (X86)\WINDOWS KITS\8.1\INCLUDE\SHARED\DRIVERSPECS.H
C:\PROGRAM FILES (X86)\WINDOWS KITS\8.1\INCLUDE\SHARED\SDV_DRIVERSPECS.H
C:\PROGRAM FILES (X86)\WINDOWS KITS\8.1\INCLUDE\UM\WINNT.H
C:\PROGRAM FILES (X86)\WINDOWS KITS\10\INCLUDE\10.0.10240.0\UCRT\CTYPE.H
C:\PROGRAM FILES (X86)\WINDOWS KITS\8.1\INCLUDE\SHARED\KERNELSPECS.H
C:\PROGRAM FILES (X86)\WINDOWS KITS\8.1\INCLUDE\SHARED\BASETSD.H
C:\PROGRAM FILES (X86)\WINDOWS KITS\8.1\INCLUDE\SHARED\GUIDDEF.H
C:\PROGRAM FILES (X86)\WINDOWS KITS\10\INCLUDE\10.0.10240.0\UCRT\STRING.H
C:\PROGRAM FILES (X86)\WINDOWS KITS\10\INCLUDE\10.0.10240.0\UCRT\CORECRT_MEMORY.H
C:\PROGRAM FILES (X86)\WINDOWS KITS\8.1\INCLUDE\SHARED\PSHPACK4.H
C:\PROGRAM FILES (X86)\WINDOWS KITS\8.1\INCLUDE\SHARED\POPPACK.H
C:\PROGRAM FILES (X86)\WINDOWS KITS\8.1\INCLUDE\SHARED\PSHPACK2.H
C:\PROGRAM FILES (X86)\WINDOWS KITS\8.1\INCLUDE\SHARED\PSHPACK8.H
C:\PROGRAM FILES (X86)\WINDOWS KITS\8.1\INCLUDE\SHARED\APISET.H
C:\PROGRAM FILES (X86)\WINDOWS KITS\8.1\INCLUDE\SHARED\KTMTYPES.H
C:\PROGRAM FILES (X86)\WINDOWS KITS\8.1\INCLUDE\UM\WINBASE.H
C:\PROGRAM FILES (X86)\WINDOWS KITS\8.1\INCLUDE\SHARED\APISETCCONV.H
C:\PROGRAM FILES (X86)\WINDOWS KITS\8.1\INCLUDE\UM\MINWINBASE.H
C:\PROGRAM FILES (X86)\WINDOWS KITS\8.1\INCLUDE\UM\PROCESSENV.H
C:\PROGRAM FILES (X86)\WINDOWS KITS\8.1\INCLUDE\UM\FILEAPI.H
C:\PROGRAM FILES (X86)\WINDOWS KITS\8.1\INCLUDE\UM\DEBUGAPI.H
C:\PROGRAM FILES (X86)\WINDOWS KITS\8.1\INCLUDE\UM\UTILAPISET.H
C:\PROGRAM FILES (X86)\WINDOWS KITS\8.1\INCLUDE\UM\HANDLEAPI.H
C:\PROGRAM FILES (X86)\WINDOWS KITS\8.1\INCLUDE\UM\ERRHANDLINGAPI.H
C:\PROGRAM FILES (X86)\WINDOWS KITS\8.1\INCLUDE\UM\FIBERSAPI.H
C:\PROGRAM FILES (X86)\WINDOWS KITS\8.1\INCLUDE\UM\NAMEDPIPEAPI.H
C:\PROGRAM FILES (X86)\WINDOWS KITS\8.1\INCLUDE\UM\PROFILEAPI.H
C:\PROGRAM FILES (X86)\WINDOWS KITS\8.1\INCLUDE\UM\HEAPAPI.H
C:\PROGRAM FILES (X86)\WINDOWS KITS\8.1\INCLUDE\UM\IOAPISET.H
C:\PROGRAM FILES (X86)\WINDOWS KITS\8.1\INCLUDE\UM\SYNCHAPI.H
C:\PROGRAM FILES (X86)\WINDOWS KITS\8.1\INCLUDE\UM\INTERLOCKEDAPI.H
C:\PROGRAM FILES (X86)\WINDOWS KITS\8.1\INCLUDE\UM\PROCESSTHREADSAPI.H
C:\PROGRAM FILES (X86)\WINDOWS KITS\8.1\INCLUDE\UM\SYSINFOAPI.H
C:\PROGRAM FILES (X86)\WINDOWS KITS\8.1\INCLUDE\UM\MEMORYAPI.H
C:\PROGRAM FILES (X86)\WINDOWS KITS\8.1\INCLUDE\UM\THREADPOOLLEGACYAPISET.H
C:\PROGRAM FILES (X86)\WINDOWS KITS\8.1\INCLUDE\UM\THREADPOOLAPISET.H
C:\PROGRAM FILES (X86)\WINDOWS KITS\8.1\INCLUDE\UM\BEMAPISET.H
C:\PROGRAM FILES (X86)\WINDOWS KITS\8.1\INCLUDE\UM\JOBAPI.H
C:\PROGRAM FILES (X86)\WINDOWS KITS\8.1\INCLUDE\UM\WOW64APISET.H
C:\PROGRAM FILES (X86)\WINDOWS KITS\8.1\INCLUDE\UM\LIBLOADERAPI.H
C:\PROGRAM FILES (X86)\WINDOWS KITS\8.1\INCLUDE\UM\SECURITYBASEAPI.H
C:\PROGRAM FILES (X86)\WINDOWS KITS\8.1\INCLUDE\UM\NAMESPACEAPI.H
C:\PROGRAM FILES (X86)\WINDOWS KITS\8.1\INCLUDE\UM\SYSTEMTOPOLOGYAPI.H
C:\PROGRAM FILES (X86)\WINDOWS KITS\8.1\INCLUDE\UM\PROCESSTOPOLOGYAPI.H
C:\PROGRAM FILES (X86)\WINDOWS KITS\8.1\INCLUDE\UM\SECURITYAPPCONTAINER.H
C:\PROGRAM FILES (X86)\WINDOWS KITS\8.1\INCLUDE\UM\REALTIMEAPISET.H
C:\PROGRAM FILES (X86)\WINDOWS KITS\8.1\INCLUDE\SHARED\WINERROR.H
C:\PROGRAM FILES (X86)\WINDOWS KITS\8.1\INCLUDE\UM\TIMEZONEAPI.H
C:\PROGRAM FILES (X86)\WINDOWS KITS\8.1\INCLUDE\UM\WINGDI.H
C:\PROGRAM FILES (X86)\WINDOWS KITS\8.1\INCLUDE\SHARED\PSHPACK1.H
C:\PROGRAM FILES (X86)\WINDOWS KITS\8.1\INCLUDE\UM\WINUSER.H
C:\PROGRAM FILES (X86)\WINDOWS KITS\8.1\INCLUDE\SHARED\TVOUT.H
C:\PROGRAM FILES (X86)\WINDOWS KITS\8.1\INCLUDE\UM\WINNLS.H
C:\PROGRAM FILES (X86)\WINDOWS KITS\8.1\INCLUDE\UM\DATETIMEAPI.H
C:\PROGRAM FILES (X86)\WINDOWS KITS\8.1\INCLUDE\UM\STRINGAPISET.H
C:\PROGRAM FILES (X86)\WINDOWS KITS\8.1\INCLUDE\UM\WINCON.H
C:\PROGRAM FILES (X86)\WINDOWS KITS\8.1\INCLUDE\UM\CONSOLEAPI.H
C:\PROGRAM FILES (X86)\WINDOWS KITS\8.1\INCLUDE\UM\WINVER.H
C:\PROGRAM FILES (X86)\WINDOWS KITS\8.1\INCLUDE\UM\VERRSRC.H
C:\PROGRAM FILES (X86)\WINDOWS KITS\8.1\INCLUDE\UM\WINREG.H
C:\PROGRAM FILES (X86)\WINDOWS KITS\8.1\INCLUDE\UM\REASON.H
C:\PROGRAM FILES (X86)\WINDOWS KITS\8.1\INCLUDE\UM\WINNETWK.H
C:\PROGRAM FILES (X86)\WINDOWS KITS\8.1\INCLUDE\SHARED\WNNC.H
C:\PROGRAM FILES (X86)\WINDOWS KITS\8.1\INCLUDE\SHARED\CDERR.H
C:\PROGRAM FILES (X86)\WINDOWS KITS\8.1\INCLUDE\UM\DDE.H
C:\PROGRAM FILES (X86)\WINDOWS KITS\8.1\INCLUDE\UM\DDEML.H
C:\PROGRAM FILES (X86)\WINDOWS KITS\8.1\INCLUDE\UM\DLGS.H
C:\PROGRAM FILES (X86)\WINDOWS KITS\8.1\INCLUDE\UM\LZEXPAND.H
C:\PROGRAM FILES (X86)\WINDOWS KITS\8.1\INCLUDE\UM\MMSYSTEM.H
C:\PROGRAM FILES (X86)\WINDOWS KITS\8.1\INCLUDE\UM\MMSYSCOM.H
C:\PROGRAM FILES (X86)\WINDOWS KITS\8.1\INCLUDE\UM\MCIAPI.H
C:\PROGRAM FILES (X86)\WINDOWS KITS\8.1\INCLUDE\UM\MMISCAPI.H
C:\PROGRAM FILES (X86)\WINDOWS KITS\8.1\INCLUDE\UM\MMISCAPI2.H
C:\PROGRAM FILES (X86)\WINDOWS KITS\8.1\INCLUDE\UM\PLAYSOUNDAPI.H
C:\PROGRAM FILES (X86)\WINDOWS KITS\8.1\INCLUDE\UM\MMEAPI.H
C:\PROGRAM FILES (X86)\WINDOWS KITS\8.1\INCLUDE\UM\TIMEAPI.H
C:\PROGRAM FILES (X86)\WINDOWS KITS\8.1\INCLUDE\UM\JOYSTICKAPI.H
C:\PROGRAM FILES (X86)\WINDOWS KITS\8.1\INCLUDE\UM\NB30.H
C:\PROGRAM FILES (X86)\WINDOWS KITS\8.1\INCLUDE\SHARED\RPC.H
C:\PROGRAM FILES (X86)\WINDOWS KITS\8.1\INCLUDE\SHARED\RPCDCE.H
C:\PROGRAM FILES (X86)\WINDOWS KITS\8.1\INCLUDE\SHARED\RPCDCEP.H
C:\PROGRAM FILES (X86)\WINDOWS KITS\8.1\INCLUDE\UM\RPCNSI.H
C:\PROGRAM FILES (X86)\WINDOWS KITS\8.1\INCLUDE\SHARED\RPCNTERR.H
C:\PROGRAM FILES (X86)\WINDOWS KITS\8.1\INCLUDE\SHARED\RPCASYNC.H
C:\PROGRAM FILES (X86)\WINDOWS KITS\8.1\INCLUDE\UM\SHELLAPI.H
C:\PROGRAM FILES (X86)\WINDOWS KITS\8.1\INCLUDE\UM\WINPERF.H
C:\PROGRAM FILES (X86)\WINDOWS KITS\8.1\INCLUDE\UM\WINSOCK.H
C:\PROGRAM FILES (X86)\WINDOWS KITS\8.1\INCLUDE\SHARED\INADDR.H
C:\PROGRAM FILES (X86)\WINDOWS KITS\8.1\INCLUDE\UM\WINCRYPT.H
C:\PROGRAM FILES (X86)\WINDOWS KITS\8.1\INCLUDE\SHARED\BCRYPT.H
C:\PROGRAM FILES (X86)\WINDOWS KITS\8.1\INCLUDE\UM\NCRYPT.H
C:\PROGRAM FILES (X86)\WINDOWS KITS\8.1\INCLUDE\UM\DPAPI.H
C:\PROGRAM FILES (X86)\WINDOWS KITS\8.1\INCLUDE\UM\WINEFS.H
C:\PROGRAM FILES (X86)\WINDOWS KITS\8.1\INCLUDE\UM\WINSCARD.H
C:\PROGRAM FILES (X86)\WINDOWS KITS\8.1\INCLUDE\SHARED\WTYPES.H
C:\PROGRAM FILES (X86)\WINDOWS KITS\8.1\INCLUDE\SHARED\RPCNDR.H
C:\PROGRAM FILES (X86)\WINDOWS KITS\8.1\INCLUDE\UM\RPCNSIP.H
C:\PROGRAM FILES (X86)\WINDOWS KITS\8.1\INCLUDE\SHARED\RPCSAL.H
C:\PROGRAM FILES (X86)\WINDOWS KITS\8.1\INCLUDE\SHARED\WTYPESBASE.H
C:\PROGRAM FILES (X86)\WINDOWS KITS\8.1\INCLUDE\UM\WINIOCTL.H
C:\PROGRAM FILES (X86)\WINDOWS KITS\8.1\INCLUDE\SHARED\WINSMCRD.H
C:\PROGRAM FILES (X86)\WINDOWS KITS\8.1\INCLUDE\UM\WINSPOOL.H
C:\PROGRAM FILES (X86)\WINDOWS KITS\8.1\INCLUDE\UM\PRSHT.H
C:\PROGRAM FILES (X86)\WINDOWS KITS\8.1\INCLUDE\UM\OLE2.H
C:\PROGRAM FILES (X86)\WINDOWS KITS\8.1\INCLUDE\UM\OBJBASE.H
C:\PROGRAM FILES (X86)\WINDOWS KITS\8.1\INCLUDE\UM\COMBASEAPI.H
C:\PROGRAM FILES (X86)\WINDOWS KITS\10\INCLUDE\10.0.10240.0\UCRT\STDLIB.H
C:\PROGRAM FILES (X86)\WINDOWS KITS\10\INCLUDE\10.0.10240.0\UCRT\CORECRT_MALLOC.H
C:\PROGRAM FILES (X86)\WINDOWS KITS\10\INCLUDE\10.0.10240.0\UCRT\CORECRT_SEARCH.H
C:\PROGRAM FILES (X86)\WINDOWS KITS\10\INCLUDE\10.0.10240.0\UCRT\STDDEF.H
C:\PROGRAM FILES (X86)\MICROSOFT VISUAL STUDIO 14.0\VC\INCLUDE\LIMITS.H
C:\PROGRAM FILES (X86)\WINDOWS KITS\8.1\INCLUDE\UM\UNKNWNBASE.H
C:\PROGRAM FILES (X86)\WINDOWS KITS\8.1\INCLUDE\UM\OBJIDLBASE.H
C:\PROGRAM FILES (X86)\WINDOWS KITS\8.1\INCLUDE\UM\CGUID.H
C:\PROGRAM FILES (X86)\WINDOWS KITS\8.1\INCLUDE\UM\OBJIDL.H
C:\PROGRAM FILES (X86)\WINDOWS KITS\8.1\INCLUDE\UM\UNKNWN.H
C:\PROGRAM FILES (X86)\WINDOWS KITS\8.1\INCLUDE\UM\URLMON.H
C:\PROGRAM FILES (X86)\WINDOWS KITS\8.1\INCLUDE\UM\OLEIDL.H
C:\PROGRAM FILES (X86)\WINDOWS KITS\8.1\INCLUDE\UM\SERVPROV.H
C:\PROGRAM FILES (X86)\WINDOWS KITS\8.1\INCLUDE\UM\MSXML.H
C:\PROGRAM FILES (X86)\WINDOWS KITS\8.1\INCLUDE\UM\OAIDL.H
C:\PROGRAM FILES (X86)\WINDOWS KITS\8.1\INCLUDE\UM\PROPIDL.H
C:\PROGRAM FILES (X86)\WINDOWS KITS\8.1\INCLUDE\UM\OLEAUTO.H
C:\PROGRAM FILES (X86)\WINDOWS KITS\8.1\INCLUDE\UM\COMMDLG.H
C:\PROGRAM FILES (X86)\WINDOWS KITS\8.1\INCLUDE\SHARED\STRALIGN.H
C:\PROGRAM FILES (X86)\WINDOWS KITS\8.1\INCLUDE\UM\WINSVC.H
C:\PROGRAM FILES (X86)\WINDOWS KITS\8.1\INCLUDE\UM\MCX.H
C:\PROGRAM FILES (X86)\WINDOWS KITS\8.1\INCLUDE\UM\IMM.H
C:\PROGRAM FILES (X86)\WINDOWS KITS\8.1\INCLUDE\UM\IME_CMODES.H
D:\LABS\4 YR\DIPLOMA\LIFE2.0\LIFE2.0\GPU.H
D:\LABS\4 YR\DIPLOMA\LIFE2.0\OPENCL\INCLUDE\CL\CL.HPP
C:\PROGRAM FILES (X86)\WINDOWS KITS\10\INCLUDE\10.0.10240.0\UCRT\MALLOC.H
C:\PROGRAM FILES (X86)\MICROSOFT VISUAL STUDIO 14.0\VC\INCLUDE\ITERATOR
C:\PROGRAM FILES (X86)\MICROSOFT VISUAL STUDIO 14.0\VC\INCLUDE\ISTREAM
C:\PROGRAM FILES (X86)\MICROSOFT VISUAL STUDIO 14.0\VC\INCLUDE\OSTREAM
C:\PROGRAM FILES (X86)\MICROSOFT VISUAL STUDIO 14.0\VC\INCLUDE\IOS
C:\PROGRAM FILES (X86)\MICROSOFT VISUAL STUDIO 14.0\VC\INCLUDE\XLOCNUM
C:\PROGRAM FILES (X86)\MICROSOFT VISUAL STUDIO 14.0\VC\INCLUDE\CLIMITS
C:\PROGRAM FILES (X86)\MICROSOFT VISUAL STUDIO 14.0\VC\INCLUDE\YVALS.H
C:\PROGRAM FILES (X86)\MICROSOFT VISUAL STUDIO 14.0\VC\INCLUDE\XKEYCHECK.H
C:\PROGRAM FILES (X86)\MICROSOFT VISUAL STUDIO 14.0\VC\INCLUDE\CRTDEFS.H
C:\PROGRAM FILES (X86)\MICROSOFT VISUAL STUDIO 14.0\VC\INCLUDE\USE_ANSI.H
C:\PROGRAM FILES (X86)\MICROSOFT VISUAL STUDIO 14.0\VC\INCLUDE\CMATH
C:\PROGRAM FILES (X86)\WINDOWS KITS\10\INCLUDE\10.0.10240.0\UCRT\MATH.H
C:\PROGRAM FILES (X86)\MICROSOFT VISUAL STUDIO 14.0\VC\INCLUDE\XTGMATH.H
C:\PROGRAM FILES (X86)\MICROSOFT VISUAL STUDIO 14.0\VC\INCLUDE\XTR1COMMON
C:\PROGRAM FILES (X86)\MICROSOFT VISUAL STUDIO 14.0\VC\INCLUDE\CSTDLIB
C:\PROGRAM FILES (X86)\MICROSOFT VISUAL STUDIO 14.0\VC\INCLUDE\CSTDIO
C:\PROGRAM FILES (X86)\MICROSOFT VISUAL STUDIO 14.0\VC\INCLUDE\STREAMBUF
C:\PROGRAM FILES (X86)\MICROSOFT VISUAL STUDIO 14.0\VC\INCLUDE\XIOSBASE
C:\PROGRAM FILES (X86)\MICROSOFT VISUAL STUDIO 14.0\VC\INCLUDE\XLOCALE
C:\PROGRAM FILES (X86)\MICROSOFT VISUAL STUDIO 14.0\VC\INCLUDE\CSTRING
C:\PROGRAM FILES (X86)\MICROSOFT VISUAL STUDIO 14.0\VC\INCLUDE\STDEXCEPT
C:\PROGRAM FILES (X86)\MICROSOFT VISUAL STUDIO 14.0\VC\INCLUDE\EXCEPTION
C:\PROGRAM FILES (X86)\MICROSOFT VISUAL STUDIO 14.0\VC\INCLUDE\TYPE_TRAITS
C:\PROGRAM FILES (X86)\MICROSOFT VISUAL STUDIO 14.0\VC\INCLUDE\XSTDDEF
C:\PROGRAM FILES (X86)\MICROSOFT VISUAL STUDIO 14.0\VC\INCLUDE\CSTDDEF
C:\PROGRAM FILES (X86)\MICROSOFT VISUAL STUDIO 14.0\VC\INCLUDE\INITIALIZER_LIST
C:\PROGRAM FILES (X86)\MICROSOFT VISUAL STUDIO 14.0\VC\INCLUDE\VCRUNTIME_EXCEPTION.H
C:\PROGRAM FILES (X86)\MICROSOFT VISUAL STUDIO 14.0\VC\INCLUDE\EH.H
C:\PROGRAM FILES (X86)\WINDOWS KITS\10\INCLUDE\10.0.10240.0\UCRT\CORECRT_TERMINATE.H
C:\PROGRAM FILES (X86)\MICROSOFT VISUAL STUDIO 14.0\VC\INCLUDE\XSTRING
C:\PROGRAM FILES (X86)\MICROSOFT VISUAL STUDIO 14.0\VC\INCLUDE\XMEMORY0
C:\PROGRAM FILES (X86)\MICROSOFT VISUAL STUDIO 14.0\VC\INCLUDE\CSTDINT
C:\PROGRAM FILES (X86)\MICROSOFT VISUAL STUDIO 14.0\VC\INCLUDE\STDINT.H
C:\PROGRAM FILES (X86)\MICROSOFT VISUAL STUDIO 14.0\VC\INCLUDE\LIMITS
C:\PROGRAM FILES (X86)\MICROSOFT VISUAL STUDIO 14.0\VC\INCLUDE\YMATH.H
C:\PROGRAM FILES (X86)\MICROSOFT VISUAL STUDIO 14.0\VC\INCLUDE\CFLOAT
C:\PROGRAM FILES (X86)\WINDOWS KITS\10\INCLUDE\10.0.10240.0\UCRT\FLOAT.H
C:\PROGRAM FILES (X86)\MICROSOFT VISUAL STUDIO 14.0\VC\INCLUDE\CWCHAR
C:\PROGRAM FILES (X86)\MICROSOFT VISUAL STUDIO 14.0\VC\INCLUDE\NEW
C:\PROGRAM FILES (X86)\MICROSOFT VISUAL STUDIO 14.0\VC\INCLUDE\VCRUNTIME_NEW.H
C:\PROGRAM FILES (X86)\MICROSOFT VISUAL STUDIO 14.0\VC\INCLUDE\XUTILITY
C:\PROGRAM FILES (X86)\MICROSOFT VISUAL STUDIO 14.0\VC\INCLUDE\UTILITY
C:\PROGRAM FILES (X86)\MICROSOFT VISUAL STUDIO 14.0\VC\INCLUDE\IOSFWD
C:\PROGRAM FILES (X86)\WINDOWS KITS\10\INCLUDE\10.0.10240.0\UCRT\CRTDBG.H
C:\PROGRAM FILES (X86)\MICROSOFT VISUAL STUDIO 14.0\VC\INCLUDE\VCRUNTIME_NEW_DEBUG.H
C:\PROGRAM FILES (X86)\MICROSOFT VISUAL STUDIO 14.0\VC\INCLUDE\XATOMIC0.H
C:\PROGRAM FILES (X86)\MICROSOFT VISUAL STUDIO 14.0\VC\INCLUDE\INTRIN.H
C:\PROGRAM FILES (X86)\MICROSOFT VISUAL STUDIO 14.0\VC\INCLUDE\SETJMP.H
C:\PROGRAM FILES (X86)\MICROSOFT VISUAL STUDIO 14.0\VC\INCLUDE\IMMINTRIN.H
C:\PROGRAM FILES (X86)\MICROSOFT VISUAL STUDIO 14.0\VC\INCLUDE\WMMINTRIN.H
C:\PROGRAM FILES (X86)\MICROSOFT VISUAL STUDIO 14.0\VC\INCLUDE\NMMINTRIN.H
C:\PROGRAM FILES (X86)\MICROSOFT VISUAL STUDIO 14.0\VC\INCLUDE\SMMINTRIN.H
C:\PROGRAM FILES (X86)\MICROSOFT VISUAL STUDIO 14.0\VC\INCLUDE\TMMINTRIN.H
C:\PROGRAM FILES (X86)\MICROSOFT VISUAL STUDIO 14.0\VC\INCLUDE\PMMINTRIN.H
C:\PROGRAM FILES (X86)\MICROSOFT VISUAL STUDIO 14.0\VC\INCLUDE\EMMINTRIN.H
C:\PROGRAM FILES (X86)\MICROSOFT VISUAL STUDIO 14.0\VC\INCLUDE\XMMINTRIN.H
C:\PROGRAM FILES (X86)\MICROSOFT VISUAL STUDIO 14.0\VC\INCLUDE\MMINTRIN.H
C:\PROGRAM FILES (X86)\MICROSOFT VISUAL STUDIO 14.0\VC\INCLUDE\AMMINTRIN.H
C:\PROGRAM FILES (X86)\MICROSOFT VISUAL STUDIO 14.0\VC\INCLUDE\MM3DNOW.H
C:\PROGRAM FILES (X86)\MICROSOFT VISUAL STUDIO 14.0\VC\INCLUDE\TYPEINFO
C:\PROGRAM FILES (X86)\MICROSOFT VISUAL STUDIO 14.0\VC\INCLUDE\VCRUNTIME_TYPEINFO.H
C:\PROGRAM FILES (X86)\MICROSOFT VISUAL STUDIO 14.0\VC\INCLUDE\XLOCINFO
C:\PROGRAM FILES (X86)\MICROSOFT VISUAL STUDIO 14.0\VC\INCLUDE\XLOCINFO.H
C:\PROGRAM FILES (X86)\WINDOWS KITS\10\INCLUDE\10.0.10240.0\UCRT\LOCALE.H
C:\PROGRAM FILES (X86)\MICROSOFT VISUAL STUDIO 14.0\VC\INCLUDE\XFACET
C:\PROGRAM FILES (X86)\MICROSOFT VISUAL STUDIO 14.0\VC\INCLUDE\SYSTEM_ERROR
C:\PROGRAM FILES (X86)\MICROSOFT VISUAL STUDIO 14.0\VC\INCLUDE\CERRNO
C:\PROGRAM FILES (X86)\WINDOWS KITS\10\INCLUDE\10.0.10240.0\UCRT\SHARE.H
C:\PROGRAM FILES (X86)\WINDOWS KITS\8.1\INCLUDE\UM\GL\GL.H
D:\LABS\4 YR\DIPLOMA\LIFE2.0\OPENCL\INCLUDE\CL\OPENCL.H
D:\LABS\4 YR\DIPLOMA\LIFE2.0\OPENCL\INCLUDE\CL\CL.H
D:\LABS\4 YR\DIPLOMA\LIFE2.0\OPENCL\INCLUDE\CL\CL_PLATFORM.H
D:\LABS\4 YR\DIPLOMA\LIFE2.0\OPENCL\INCLUDE\CL\CL_GL.H
D:\LABS\4 YR\DIPLOMA\LIFE2.0\OPENCL\INCLUDE\CL\CL_GL_EXT.H
D:\LABS\4 YR\DIPLOMA\LIFE2.0\OPENCL\INCLUDE\CL\CL_EXT.H
C:\PROGRAM FILES (X86)\MICROSOFT VISUAL STUDIO 14.0\VC\INCLUDE\VECTOR
C:\PROGRAM FILES (X86)\MICROSOFT VISUAL STUDIO 14.0\VC\INCLUDE\XMEMORY
C:\PROGRAM FILES (X86)\MICROSOFT VISUAL STUDIO 14.0\VC\INCLUDE\STRING
C:\PROGRAM FILES (X86)\MICROSOFT VISUAL STUDIO 14.0\VC\INCLUDE\FSTREAM
C:\PROGRAM FILES (X86)\MICROSOFT VISUAL STUDIO 14.0\VC\INCLUDE\CHRONO
C:\PROGRAM FILES (X86)\MICROSOFT VISUAL STUDIO 14.0\VC\INCLUDE\RATIO
C:\PROGRAM FILES (X86)\WINDOWS KITS\10\INCLUDE\10.0.10240.0\UCRT\TIME.H
C:\PROGRAM FILES (X86)\MICROSOFT VISUAL STUDIO 14.0\VC\INCLUDE\THR\XTIMEC.H
C:\PROGRAM FILES (X86)\MICROSOFT VISUAL STUDIO 14.0\VC\INCLUDE\THR\XTHRCOMMON.H
C:\PROGRAM FILES (X86)\MICROSOFT VISUAL STUDIO 14.0\VC\INCLUDE\IOSTREAM
C:\PROGRAM FILES (X86)\MICROSOFT VISUAL STUDIO 14.0\VC\INCLUDE\RANDOM
^D:\LABS\4 YR\DIPLOMA\LIFE2.0\LIFE2.0\LIFE2.0.CPP
D:\LABS\4 YR\DIPLOMA\LIFE2.0\LIFE2.0\STDAFX.H
D:\LABS\4 YR\DIPLOMA\LIFE2.0\LIFE2.0\TARGETVER.H
C:\PROGRAM FILES (X86)\WINDOWS KITS\8.1\INCLUDE\SHARED\SDKDDKVER.H
C:\PROGRAM FILES (X86)\WINDOWS KITS\10\INCLUDE\10.0.10240.0\UCRT\STDIO.H
C:\PROGRAM FILES (X86)\WINDOWS KITS\10\INCLUDE\10.0.10240.0\UCRT\CORECRT.H
C:\PROGRAM FILES (X86)\MICROSOFT VISUAL STUDIO 14.0\VC\INCLUDE\VCRUNTIME.H
C:\PROGRAM FILES (X86)\MICROSOFT VISUAL STUDIO 14.0\VC\INCLUDE\SAL.H
C:\PROGRAM FILES (X86)\MICROSOFT VISUAL STUDIO 14.0\VC\INCLUDE\CONCURRENCYSAL.H
C:\PROGRAM FILES (X86)\MICROSOFT VISUAL STUDIO 14.0\VC\INCLUDE\VADEFS.H
C:\PROGRAM FILES (X86)\WINDOWS KITS\10\INCLUDE\10.0.10240.0\UCRT\CORECRT_WSTDIO.H
C:\PROGRAM FILES (X86)\WINDOWS KITS\10\INCLUDE\10.0.10240.0\UCRT\CORECRT_STDIO_CONFIG.H
C:\PROGRAM FILES (X86)\WINDOWS KITS\10\INCLUDE\10.0.10240.0\UCRT\TCHAR.H
C:\PROGRAM FILES (X86)\WINDOWS KITS\10\INCLUDE\10.0.10240.0\UCRT\WCHAR.H
C:\PROGRAM FILES (X86)\WINDOWS KITS\10\INCLUDE\10.0.10240.0\UCRT\CORECRT_MEMCPY_S.H
C:\PROGRAM FILES (X86)\WINDOWS KITS\10\INCLUDE\10.0.10240.0\UCRT\ERRNO.H
C:\PROGRAM FILES (X86)\MICROSOFT VISUAL STUDIO 14.0\VC\INCLUDE\VCRUNTIME_STRING.H
C:\PROGRAM FILES (X86)\WINDOWS KITS\10\INCLUDE\10.0.10240.0\UCRT\CORECRT_WCONIO.H
C:\PROGRAM FILES (X86)\WINDOWS KITS\10\INCLUDE\10.0.10240.0\UCRT\CORECRT_WCTYPE.H
C:\PROGRAM FILES (X86)\WINDOWS KITS\10\INCLUDE\10.0.10240.0\UCRT\CORECRT_WDIRECT.H
C:\PROGRAM FILES (X86)\WINDOWS KITS\10\INCLUDE\10.0.10240.0\UCRT\CORECRT_WIO.H
C:\PROGRAM FILES (X86)\WINDOWS KITS\10\INCLUDE\10.0.10240.0\UCRT\CORECRT_SHARE.H
C:\PROGRAM FILES (X86)\WINDOWS KITS\10\INCLUDE\10.0.10240.0\UCRT\CORECRT_WPROCESS.H
C:\PROGRAM FILES (X86)\WINDOWS KITS\10\INCLUDE\10.0.10240.0\UCRT\CORECRT_WSTDLIB.H
C:\PROGRAM FILES (X86)\WINDOWS KITS\10\INCLUDE\10.0.10240.0\UCRT\CORECRT_WSTRING.H
C:\PROGRAM FILES (X86)\WINDOWS KITS\10\INCLUDE\10.0.10240.0\UCRT\CORECRT_WTIME.H
C:\PROGRAM FILES (X86)\WINDOWS KITS\10\INCLUDE\10.0.10240.0\UCRT\SYS\STAT.H
C:\PROGRAM FILES (X86)\WINDOWS KITS\10\INCLUDE\10.0.10240.0\UCRT\SYS\TYPES.H
D:\LABS\4 YR\DIPLOMA\LIFE2.0\LIFE2.0\LOGIC.H
C:\PROGRAM FILES (X86)\WINDOWS KITS\8.1\INCLUDE\UM\WINDOWS.H
C:\PROGRAM FILES (X86)\WINDOWS KITS\8.1\INCLUDE\SHARED\WINAPIFAMILY.H
C:\PROGRAM FILES (X86)\MICROSOFT VISUAL STUDIO 14.0\VC\INCLUDE\EXCPT.H
C:\PROGRAM FILES (X86)\MICROSOFT VISUAL STUDIO 14.0\VC\INCLUDE\STDARG.H
C:\PROGRAM FILES (X86)\WINDOWS KITS\8.1\INCLUDE\SHARED\WINDEF.H
C:\PROGRAM FILES (X86)\WINDOWS KITS\8.1\INCLUDE\SHARED\MINWINDEF.H
C:\PROGRAM FILES (X86)\WINDOWS KITS\8.1\INCLUDE\SHARED\SPECSTRINGS.H
C:\PROGRAM FILES (X86)\WINDOWS KITS\8.1\INCLUDE\SHARED\SPECSTRINGS_STRICT.H
C:\PROGRAM FILES (X86)\WINDOWS KITS\8.1\INCLUDE\SHARED\SPECSTRINGS_UNDEF.H
C:\PROGRAM FILES (X86)\WINDOWS KITS\8.1\INCLUDE\SHARED\DRIVERSPECS.H
C:\PROGRAM FILES (X86)\WINDOWS KITS\8.1\INCLUDE\SHARED\SDV_DRIVERSPECS.H
C:\PROGRAM FILES (X86)\WINDOWS KITS\8.1\INCLUDE\UM\WINNT.H
C:\PROGRAM FILES (X86)\WINDOWS KITS\10\INCLUDE\10.0.10240.0\UCRT\CTYPE.H
C:\PROGRAM FILES (X86)\WINDOWS KITS\8.1\INCLUDE\SHARED\KERNELSPECS.H
C:\PROGRAM FILES (X86)\WINDOWS KITS\8.1\INCLUDE\SHARED\BASETSD.H
C:\PROGRAM FILES (X86)\WINDOWS KITS\8.1\INCLUDE\SHARED\GUIDDEF.H
C:\PROGRAM FILES (X86)\WINDOWS KITS\10\INCLUDE\10.0.10240.0\UCRT\STRING.H
C:\PROGRAM FILES (X86)\WINDOWS KITS\10\INCLUDE\10.0.10240.0\UCRT\CORECRT_MEMORY.H
C:\PROGRAM FILES (X86)\WINDOWS KITS\8.1\INCLUDE\SHARED\PSHPACK4.H
C:\PROGRAM FILES (X86)\WINDOWS KITS\8.1\INCLUDE\SHARED\POPPACK.H
C:\PROGRAM FILES (X86)\WINDOWS KITS\8.1\INCLUDE\SHARED\PSHPACK2.H
C:\PROGRAM FILES (X86)\WINDOWS KITS\8.1\INCLUDE\SHARED\PSHPACK8.H
C:\PROGRAM FILES (X86)\WINDOWS KITS\8.1\INCLUDE\SHARED\APISET.H
C:\PROGRAM FILES (X86)\WINDOWS KITS\8.1\INCLUDE\SHARED\KTMTYPES.H
C:\PROGRAM FILES (X86)\WINDOWS KITS\8.1\INCLUDE\UM\WINBASE.H
C:\PROGRAM FILES (X86)\WINDOWS KITS\8.1\INCLUDE\SHARED\APISETCCONV.H
C:\PROGRAM FILES (X86)\WINDOWS KITS\8.1\INCLUDE\UM\MINWINBASE.H
C:\PROGRAM FILES (X86)\WINDOWS KITS\8.1\INCLUDE\UM\PROCESSENV.H
C:\PROGRAM FILES (X86)\WINDOWS KITS\8.1\INCLUDE\UM\FILEAPI.H
C:\PROGRAM FILES (X86)\WINDOWS KITS\8.1\INCLUDE\UM\DEBUGAPI.H
C:\PROGRAM FILES (X86)\WINDOWS KITS\8.1\INCLUDE\UM\UTILAPISET.H
C:\PROGRAM FILES (X86)\WINDOWS KITS\8.1\INCLUDE\UM\HANDLEAPI.H
C:\PROGRAM FILES (X86)\WINDOWS KITS\8.1\INCLUDE\UM\ERRHANDLINGAPI.H
C:\PROGRAM FILES (X86)\WINDOWS KITS\8.1\INCLUDE\UM\FIBERSAPI.H
C:\PROGRAM FILES (X86)\WINDOWS KITS\8.1\INCLUDE\UM\NAMEDPIPEAPI.H
C:\PROGRAM FILES (X86)\WINDOWS KITS\8.1\INCLUDE\UM\PROFILEAPI.H
C:\PROGRAM FILES (X86)\WINDOWS KITS\8.1\INCLUDE\UM\HEAPAPI.H
C:\PROGRAM FILES (X86)\WINDOWS KITS\8.1\INCLUDE\UM\IOAPISET.H
C:\PROGRAM FILES (X86)\WINDOWS KITS\8.1\INCLUDE\UM\SYNCHAPI.H
C:\PROGRAM FILES (X86)\WINDOWS KITS\8.1\INCLUDE\UM\INTERLOCKEDAPI.H
C:\PROGRAM FILES (X86)\WINDOWS KITS\8.1\INCLUDE\UM\PROCESSTHREADSAPI.H
C:\PROGRAM FILES (X86)\WINDOWS KITS\8.1\INCLUDE\UM\SYSINFOAPI.H
C:\PROGRAM FILES (X86)\WINDOWS KITS\8.1\INCLUDE\UM\MEMORYAPI.H
C:\PROGRAM FILES (X86)\WINDOWS KITS\8.1\INCLUDE\UM\THREADPOOLLEGACYAPISET.H
C:\PROGRAM FILES (X86)\WINDOWS KITS\8.1\INCLUDE\UM\THREADPOOLAPISET.H
C:\PROGRAM FILES (X86)\WINDOWS KITS\8.1\INCLUDE\UM\BEMAPISET.H
C:\PROGRAM FILES (X86)\WINDOWS KITS\8.1\INCLUDE\UM\JOBAPI.H
C:\PROGRAM FILES (X86)\WINDOWS KITS\8.1\INCLUDE\UM\WOW64APISET.H
C:\PROGRAM FILES (X86)\WINDOWS KITS\8.1\INCLUDE\UM\LIBLOADERAPI.H
C:\PROGRAM FILES (X86)\WINDOWS KITS\8.1\INCLUDE\UM\SECURITYBASEAPI.H
C:\PROGRAM FILES (X86)\WINDOWS KITS\8.1\INCLUDE\UM\NAMESPACEAPI.H
C:\PROGRAM FILES (X86)\WINDOWS KITS\8.1\INCLUDE\UM\SYSTEMTOPOLOGYAPI.H
C:\PROGRAM FILES (X86)\WINDOWS KITS\8.1\INCLUDE\UM\PROCESSTOPOLOGYAPI.H
C:\PROGRAM FILES (X86)\WINDOWS KITS\8.1\INCLUDE\UM\SECURITYAPPCONTAINER.H
C:\PROGRAM FILES (X86)\WINDOWS KITS\8.1\INCLUDE\UM\REALTIMEAPISET.H
C:\PROGRAM FILES (X86)\WINDOWS KITS\8.1\INCLUDE\SHARED\WINERROR.H
C:\PROGRAM FILES (X86)\WINDOWS KITS\8.1\INCLUDE\UM\TIMEZONEAPI.H
C:\PROGRAM FILES (X86)\WINDOWS KITS\8.1\INCLUDE\UM\WINGDI.H
C:\PROGRAM FILES (X86)\WINDOWS KITS\8.1\INCLUDE\SHARED\PSHPACK1.H
C:\PROGRAM FILES (X86)\WINDOWS KITS\8.1\INCLUDE\UM\WINUSER.H
C:\PROGRAM FILES (X86)\WINDOWS KITS\8.1\INCLUDE\SHARED\TVOUT.H
C:\PROGRAM FILES (X86)\WINDOWS KITS\8.1\INCLUDE\UM\WINNLS.H
C:\PROGRAM FILES (X86)\WINDOWS KITS\8.1\INCLUDE\UM\DATETIMEAPI.H
C:\PROGRAM FILES (X86)\WINDOWS KITS\8.1\INCLUDE\UM\STRINGAPISET.H
C:\PROGRAM FILES (X86)\WINDOWS KITS\8.1\INCLUDE\UM\WINCON.H
C:\PROGRAM FILES (X86)\WINDOWS KITS\8.1\INCLUDE\UM\CONSOLEAPI.H
C:\PROGRAM FILES (X86)\WINDOWS KITS\8.1\INCLUDE\UM\WINVER.H
C:\PROGRAM FILES (X86)\WINDOWS KITS\8.1\INCLUDE\UM\VERRSRC.H
C:\PROGRAM FILES (X86)\WINDOWS KITS\8.1\INCLUDE\UM\WINREG.H
C:\PROGRAM FILES (X86)\WINDOWS KITS\8.1\INCLUDE\UM\REASON.H
C:\PROGRAM FILES (X86)\WINDOWS KITS\8.1\INCLUDE\UM\WINNETWK.H
C:\PROGRAM FILES (X86)\WINDOWS KITS\8.1\INCLUDE\SHARED\WNNC.H
C:\PROGRAM FILES (X86)\WINDOWS KITS\8.1\INCLUDE\SHARED\CDERR.H
C:\PROGRAM FILES (X86)\WINDOWS KITS\8.1\INCLUDE\UM\DDE.H
C:\PROGRAM FILES (X86)\WINDOWS KITS\8.1\INCLUDE\UM\DDEML.H
C:\PROGRAM FILES (X86)\WINDOWS KITS\8.1\INCLUDE\UM\DLGS.H
C:\PROGRAM FILES (X86)\WINDOWS KITS\8.1\INCLUDE\UM\LZEXPAND.H
C:\PROGRAM FILES (X86)\WINDOWS KITS\8.1\INCLUDE\UM\MMSYSTEM.H
C:\PROGRAM FILES (X86)\WINDOWS KITS\8.1\INCLUDE\UM\MMSYSCOM.H
C:\PROGRAM FILES (X86)\WINDOWS KITS\8.1\INCLUDE\UM\MCIAPI.H
C:\PROGRAM FILES (X86)\WINDOWS KITS\8.1\INCLUDE\UM\MMISCAPI.H
C:\PROGRAM FILES (X86)\WINDOWS KITS\8.1\INCLUDE\UM\MMISCAPI2.H
C:\PROGRAM FILES (X86)\WINDOWS KITS\8.1\INCLUDE\UM\PLAYSOUNDAPI.H
C:\PROGRAM FILES (X86)\WINDOWS KITS\8.1\INCLUDE\UM\MMEAPI.H
C:\PROGRAM FILES (X86)\WINDOWS KITS\8.1\INCLUDE\UM\TIMEAPI.H
C:\PROGRAM FILES (X86)\WINDOWS KITS\8.1\INCLUDE\UM\JOYSTICKAPI.H
C:\PROGRAM FILES (X86)\WINDOWS KITS\8.1\INCLUDE\UM\NB30.H
C:\PROGRAM FILES (X86)\WINDOWS KITS\8.1\INCLUDE\SHARED\RPC.H
C:\PROGRAM FILES (X86)\WINDOWS KITS\8.1\INCLUDE\SHARED\RPCDCE.H
C:\PROGRAM FILES (X86)\WINDOWS KITS\8.1\INCLUDE\SHARED\RPCDCEP.H
C:\PROGRAM FILES (X86)\WINDOWS KITS\8.1\INCLUDE\UM\RPCNSI.H
C:\PROGRAM FILES (X86)\WINDOWS KITS\8.1\INCLUDE\SHARED\RPCNTERR.H
C:\PROGRAM FILES (X86)\WINDOWS KITS\8.1\INCLUDE\SHARED\RPCASYNC.H
C:\PROGRAM FILES (X86)\WINDOWS KITS\8.1\INCLUDE\UM\SHELLAPI.H
C:\PROGRAM FILES (X86)\WINDOWS KITS\8.1\INCLUDE\UM\WINPERF.H
C:\PROGRAM FILES (X86)\WINDOWS KITS\8.1\INCLUDE\UM\WINSOCK.H
C:\PROGRAM FILES (X86)\WINDOWS KITS\8.1\INCLUDE\SHARED\INADDR.H
C:\PROGRAM FILES (X86)\WINDOWS KITS\8.1\INCLUDE\UM\WINCRYPT.H
C:\PROGRAM FILES (X86)\WINDOWS KITS\8.1\INCLUDE\SHARED\BCRYPT.H
C:\PROGRAM FILES (X86)\WINDOWS KITS\8.1\INCLUDE\UM\NCRYPT.H
C:\PROGRAM FILES (X86)\WINDOWS KITS\8.1\INCLUDE\UM\DPAPI.H
C:\PROGRAM FILES (X86)\WINDOWS KITS\8.1\INCLUDE\UM\WINEFS.H
C:\PROGRAM FILES (X86)\WINDOWS KITS\8.1\INCLUDE\UM\WINSCARD.H
C:\PROGRAM FILES (X86)\WINDOWS KITS\8.1\INCLUDE\SHARED\WTYPES.H
C:\PROGRAM FILES (X86)\WINDOWS KITS\8.1\INCLUDE\SHARED\RPCNDR.H
C:\PROGRAM FILES (X86)\WINDOWS KITS\8.1\INCLUDE\UM\RPCNSIP.H
C:\PROGRAM FILES (X86)\WINDOWS KITS\8.1\INCLUDE\SHARED\RPCSAL.H
C:\PROGRAM FILES (X86)\WINDOWS KITS\8.1\INCLUDE\SHARED\WTYPESBASE.H
C:\PROGRAM FILES (X86)\WINDOWS KITS\8.1\INCLUDE\UM\WINIOCTL.H
C:\PROGRAM FILES (X86)\WINDOWS KITS\8.1\INCLUDE\SHARED\WINSMCRD.H
C:\PROGRAM FILES (X86)\WINDOWS KITS\8.1\INCLUDE\UM\WINSPOOL.H
C:\PROGRAM FILES (X86)\WINDOWS KITS\8.1\INCLUDE\UM\PRSHT.H
C:\PROGRAM FILES (X86)\WINDOWS KITS\8.1\INCLUDE\UM\OLE2.H
C:\PROGRAM FILES (X86)\WINDOWS KITS\8.1\INCLUDE\UM\OBJBASE.H
C:\PROGRAM FILES (X86)\WINDOWS KITS\8.1\INCLUDE\UM\COMBASEAPI.H
C:\PROGRAM FILES (X86)\WINDOWS KITS\10\INCLUDE\10.0.10240.0\UCRT\STDLIB.H
C:\PROGRAM FILES (X86)\WINDOWS KITS\10\INCLUDE\10.0.10240.0\UCRT\CORECRT_MALLOC.H
C:\PROGRAM FILES (X86)\WINDOWS KITS\10\INCLUDE\10.0.10240.0\UCRT\CORECRT_SEARCH.H
C:\PROGRAM FILES (X86)\WINDOWS KITS\10\INCLUDE\10.0.10240.0\UCRT\STDDEF.H
C:\PROGRAM FILES (X86)\MICROSOFT VISUAL STUDIO 14.0\VC\INCLUDE\LIMITS.H
C:\PROGRAM FILES (X86)\WINDOWS KITS\8.1\INCLUDE\UM\UNKNWNBASE.H
C:\PROGRAM FILES (X86)\WINDOWS KITS\8.1\INCLUDE\UM\OBJIDLBASE.H
C:\PROGRAM FILES (X86)\WINDOWS KITS\8.1\INCLUDE\UM\CGUID.H
C:\PROGRAM FILES (X86)\WINDOWS KITS\8.1\INCLUDE\UM\OBJIDL.H
C:\PROGRAM FILES (X86)\WINDOWS KITS\8.1\INCLUDE\UM\UNKNWN.H
C:\PROGRAM FILES (X86)\WINDOWS KITS\8.1\INCLUDE\UM\URLMON.H
C:\PROGRAM FILES (X86)\WINDOWS KITS\8.1\INCLUDE\UM\OLEIDL.H
C:\PROGRAM FILES (X86)\WINDOWS KITS\8.1\INCLUDE\UM\SERVPROV.H
C:\PROGRAM FILES (X86)\WINDOWS KITS\8.1\INCLUDE\UM\MSXML.H
C:\PROGRAM FILES (X86)\WINDOWS KITS\8.1\INCLUDE\UM\OAIDL.H
C:\PROGRAM FILES (X86)\WINDOWS KITS\8.1\INCLUDE\UM\PROPIDL.H
C:\PROGRAM FILES (X86)\WINDOWS KITS\8.1\INCLUDE\UM\OLEAUTO.H
C:\PROGRAM FILES (X86)\WINDOWS KITS\8.1\INCLUDE\UM\COMMDLG.H
C:\PROGRAM FILES (X86)\WINDOWS KITS\8.1\INCLUDE\SHARED\STRALIGN.H
C:\PROGRAM FILES (X86)\WINDOWS KITS\8.1\INCLUDE\UM\WINSVC.H
C:\PROGRAM FILES (X86)\WINDOWS KITS\8.1\INCLUDE\UM\MCX.H
C:\PROGRAM FILES (X86)\WINDOWS KITS\8.1\INCLUDE\UM\IMM.H
C:\PROGRAM FILES (X86)\WINDOWS KITS\8.1\INCLUDE\UM\IME_CMODES.H
D:\LABS\4 YR\DIPLOMA\LIFE2.0\LIFE2.0\GPU.H
D:\LABS\4 YR\DIPLOMA\LIFE2.0\OPENCL\INCLUDE\CL\CL.HPP
C:\PROGRAM FILES (X86)\WINDOWS KITS\10\INCLUDE\10.0.10240.0\UCRT\MALLOC.H
C:\PROGRAM FILES (X86)\MICROSOFT VISUAL STUDIO 14.0\VC\INCLUDE\ITERATOR
C:\PROGRAM FILES (X86)\MICROSOFT VISUAL STUDIO 14.0\VC\INCLUDE\ISTREAM
C:\PROGRAM FILES (X86)\MICROSOFT VISUAL STUDIO 14.0\VC\INCLUDE\OSTREAM
C:\PROGRAM FILES (X86)\MICROSOFT VISUAL STUDIO 14.0\VC\INCLUDE\IOS
C:\PROGRAM FILES (X86)\MICROSOFT VISUAL STUDIO 14.0\VC\INCLUDE\XLOCNUM
C:\PROGRAM FILES (X86)\MICROSOFT VISUAL STUDIO 14.0\VC\INCLUDE\CLIMITS
C:\PROGRAM FILES (X86)\MICROSOFT VISUAL STUDIO 14.0\VC\INCLUDE\YVALS.H
C:\PROGRAM FILES (X86)\MICROSOFT VISUAL STUDIO 14.0\VC\INCLUDE\XKEYCHECK.H
C:\PROGRAM FILES (X86)\MICROSOFT VISUAL STUDIO 14.0\VC\INCLUDE\CRTDEFS.H
C:\PROGRAM FILES (X86)\MICROSOFT VISUAL STUDIO 14.0\VC\INCLUDE\USE_ANSI.H
C:\PROGRAM FILES (X86)\MICROSOFT VISUAL STUDIO 14.0\VC\INCLUDE\CMATH
C:\PROGRAM FILES (X86)\WINDOWS KITS\10\INCLUDE\10.0.10240.0\UCRT\MATH.H
C:\PROGRAM FILES (X86)\MICROSOFT VISUAL STUDIO 14.0\VC\INCLUDE\XTGMATH.H
C:\PROGRAM FILES (X86)\MICROSOFT VISUAL STUDIO 14.0\VC\INCLUDE\XTR1COMMON
C:\PROGRAM FILES (X86)\MICROSOFT VISUAL STUDIO 14.0\VC\INCLUDE\CSTDLIB
C:\PROGRAM FILES (X86)\MICROSOFT VISUAL STUDIO 14.0\VC\INCLUDE\CSTDIO
C:\PROGRAM FILES (X86)\MICROSOFT VISUAL STUDIO 14.0\VC\INCLUDE\STREAMBUF
C:\PROGRAM FILES (X86)\MICROSOFT VISUAL STUDIO 14.0\VC\INCLUDE\XIOSBASE
C:\PROGRAM FILES (X86)\MICROSOFT VISUAL STUDIO 14.0\VC\INCLUDE\XLOCALE
C:\PROGRAM FILES (X86)\MICROSOFT VISUAL STUDIO 14.0\VC\INCLUDE\CSTRING
C:\PROGRAM FILES (X86)\MICROSOFT VISUAL STUDIO 14.0\VC\INCLUDE\STDEXCEPT
C:\PROGRAM FILES (X86)\MICROSOFT VISUAL STUDIO 14.0\VC\INCLUDE\EXCEPTION
C:\PROGRAM FILES (X86)\MICROSOFT VISUAL STUDIO 14.0\VC\INCLUDE\TYPE_TRAITS
C:\PROGRAM FILES (X86)\MICROSOFT VISUAL STUDIO 14.0\VC\INCLUDE\XSTDDEF
C:\PROGRAM FILES (X86)\MICROSOFT VISUAL STUDIO 14.0\VC\INCLUDE\CSTDDEF
C:\PROGRAM FILES (X86)\MICROSOFT VISUAL STUDIO 14.0\VC\INCLUDE\INITIALIZER_LIST
C:\PROGRAM FILES (X86)\MICROSOFT VISUAL STUDIO 14.0\VC\INCLUDE\VCRUNTIME_EXCEPTION.H
C:\PROGRAM FILES (X86)\MICROSOFT VISUAL STUDIO 14.0\VC\INCLUDE\EH.H
C:\PROGRAM FILES (X86)\WINDOWS KITS\10\INCLUDE\10.0.10240.0\UCRT\CORECRT_TERMINATE.H
C:\PROGRAM FILES (X86)\MICROSOFT VISUAL STUDIO 14.0\VC\INCLUDE\XSTRING
C:\PROGRAM FILES (X86)\MICROSOFT VISUAL STUDIO 14.0\VC\INCLUDE\XMEMORY0
C:\PROGRAM FILES (X86)\MICROSOFT VISUAL STUDIO 14.0\VC\INCLUDE\CSTDINT
C:\PROGRAM FILES (X86)\MICROSOFT VISUAL STUDIO 14.0\VC\INCLUDE\STDINT.H
C:\PROGRAM FILES (X86)\MICROSOFT VISUAL STUDIO 14.0\VC\INCLUDE\LIMITS
C:\PROGRAM FILES (X86)\MICROSOFT VISUAL STUDIO 14.0\VC\INCLUDE\YMATH.H
C:\PROGRAM FILES (X86)\MICROSOFT VISUAL STUDIO 14.0\VC\INCLUDE\CFLOAT
C:\PROGRAM FILES (X86)\WINDOWS KITS\10\INCLUDE\10.0.10240.0\UCRT\FLOAT.H
C:\PROGRAM FILES (X86)\MICROSOFT VISUAL STUDIO 14.0\VC\INCLUDE\CWCHAR
C:\PROGRAM FILES (X86)\MICROSOFT VISUAL STUDIO 14.0\VC\INCLUDE\NEW
C:\PROGRAM FILES (X86)\MICROSOFT VISUAL STUDIO 14.0\VC\INCLUDE\VCRUNTIME_NEW.H
C:\PROGRAM FILES (X86)\MICROSOFT VISUAL STUDIO 14.0\VC\INCLUDE\XUTILITY
C:\PROGRAM FILES (X86)\MICROSOFT VISUAL STUDIO 14.0\VC\INCLUDE\UTILITY
C:\PROGRAM FILES (X86)\MICROSOFT VISUAL STUDIO 14.0\VC\INCLUDE\IOSFWD
C:\PROGRAM FILES (X86)\WINDOWS KITS\10\INCLUDE\10.0.10240.0\UCRT\CRTDBG.H
C:\PROGRAM FILES (X86)\MICROSOFT VISUAL STUDIO 14.0\VC\INCLUDE\VCRUNTIME_NEW_DEBUG.H
C:\PROGRAM FILES (X86)\MICROSOFT VISUAL STUDIO 14.0\VC\INCLUDE\XATOMIC0.H
C:\PROGRAM FILES (X86)\MICROSOFT VISUAL STUDIO 14.0\VC\INCLUDE\INTRIN.H
C:\PROGRAM FILES (X86)\MICROSOFT VISUAL STUDIO 14.0\VC\INCLUDE\SETJMP.H
C:\PROGRAM FILES (X86)\MICROSOFT VISUAL STUDIO 14.0\VC\INCLUDE\IMMINTRIN.H
C:\PROGRAM FILES (X86)\MICROSOFT VISUAL STUDIO 14.0\VC\INCLUDE\WMMINTRIN.H
C:\PROGRAM FILES (X86)\MICROSOFT VISUAL STUDIO 14.0\VC\INCLUDE\NMMINTRIN.H
C:\PROGRAM FILES (X86)\MICROSOFT VISUAL STUDIO 14.0\VC\INCLUDE\SMMINTRIN.H
C:\PROGRAM FILES (X86)\MICROSOFT VISUAL STUDIO 14.0\VC\INCLUDE\TMMINTRIN.H
C:\PROGRAM FILES (X86)\MICROSOFT VISUAL STUDIO 14.0\VC\INCLUDE\PMMINTRIN.H
C:\PROGRAM FILES (X86)\MICROSOFT VISUAL STUDIO 14.0\VC\INCLUDE\EMMINTRIN.H
C:\PROGRAM FILES (X86)\MICROSOFT VISUAL STUDIO 14.0\VC\INCLUDE\XMMINTRIN.H
C:\PROGRAM FILES (X86)\MICROSOFT VISUAL STUDIO 14.0\VC\INCLUDE\MMINTRIN.H
C:\PROGRAM FILES (X86)\MICROSOFT VISUAL STUDIO 14.0\VC\INCLUDE\AMMINTRIN.H
C:\PROGRAM FILES (X86)\MICROSOFT VISUAL STUDIO 14.0\VC\INCLUDE\MM3DNOW.H
C:\PROGRAM FILES (X86)\MICROSOFT VISUAL STUDIO 14.0\VC\INCLUDE\TYPEINFO
C:\PROGRAM FILES (X86)\MICROSOFT VISUAL STUDIO 14.0\VC\INCLUDE\VCRUNTIME_TYPEINFO.H
C:\PROGRAM FILES (X86)\MICROSOFT VISUAL STUDIO 14.0\VC\INCLUDE\XLOCINFO
C:\PROGRAM FILES (X86)\MICROSOFT VISUAL STUDIO 14.0\VC\INCLUDE\XLOCINFO.H
C:\PROGRAM FILES (X86)\WINDOWS KITS\10\INCLUDE\10.0.10240.0\UCRT\LOCALE.H
C:\PROGRAM FILES (X86)\MICROSOFT VISUAL STUDIO 14.0\VC\INCLUDE\XFACET
C:\PROGRAM FILES (X86)\MICROSOFT VISUAL STUDIO 14.0\VC\INCLUDE\SYSTEM_ERROR
C:\PROGRAM FILES (X86)\MICROSOFT VISUAL STUDIO 14.0\VC\INCLUDE\CERRNO
C:\PROGRAM FILES (X86)\WINDOWS KITS\10\INCLUDE\10.0.10240.0\UCRT\SHARE.H
C:\PROGRAM FILES (X86)\WINDOWS KITS\8.1\INCLUDE\UM\GL\GL.H
D:\LABS\4 YR\DIPLOMA\LIFE2.0\OPENCL\INCLUDE\CL\OPENCL.H
D:\LABS\4 YR\DIPLOMA\LIFE2.0\OPENCL\INCLUDE\CL\CL.H
D:\LABS\4 YR\DIPLOMA\LIFE2.0\OPENCL\INCLUDE\CL\CL_PLATFORM.H
D:\LABS\4 YR\DIPLOMA\LIFE2.0\OPENCL\INCLUDE\CL\CL_GL.H
D:\LABS\4 YR\DIPLOMA\LIFE2.0\OPENCL\INCLUDE\CL\CL_GL_EXT.H
D:\LABS\4 YR\DIPLOMA\LIFE2.0\OPENCL\INCLUDE\CL\CL_EXT.H
C:\PROGRAM FILES (X86)\MICROSOFT VISUAL STUDIO 14.0\VC\INCLUDE\VECTOR
C:\PROGRAM FILES (X86)\MICROSOFT VISUAL STUDIO 14.0\VC\INCLUDE\XMEMORY
C:\PROGRAM FILES (X86)\MICROSOFT VISUAL STUDIO 14.0\VC\INCLUDE\STRING
C:\PROGRAM FILES (X86)\MICROSOFT VISUAL STUDIO 14.0\VC\INCLUDE\FSTREAM
C:\PROGRAM FILES (X86)\MICROSOFT VISUAL STUDIO 14.0\VC\INCLUDE\CHRONO
C:\PROGRAM FILES (X86)\MICROSOFT VISUAL STUDIO 14.0\VC\INCLUDE\RATIO
C:\PROGRAM FILES (X86)\WINDOWS KITS\10\INCLUDE\10.0.10240.0\UCRT\TIME.H
C:\PROGRAM FILES (X86)\MICROSOFT VISUAL STUDIO 14.0\VC\INCLUDE\THR\XTIMEC.H
C:\PROGRAM FILES (X86)\MICROSOFT VISUAL STUDIO 14.0\VC\INCLUDE\THR\XTHRCOMMON.H
D:\LABS\4 YR\DIPLOMA\LIFE2.0\LIFE2.0\GUI.H
D:\LABS\4 YR\DIPLOMA\LIFE2.0\SFML\INCLUDE\SFML\GRAPHICS.HPP
D:\LABS\4 YR\DIPLOMA\LIFE2.0\SFML\INCLUDE\SFML\WINDOW.HPP
D:\LABS\4 YR\DIPLOMA\LIFE2.0\SFML\INCLUDE\SFML\SYSTEM.HPP
D:\LABS\4 YR\DIPLOMA\LIFE2.0\SFML\INCLUDE\SFML\CONFIG.HPP
D:\LABS\4 YR\DIPLOMA\LIFE2.0\SFML\INCLUDE\SFML\SYSTEM\CLOCK.HPP
D:\LABS\4 YR\DIPLOMA\LIFE2.0\SFML\INCLUDE\SFML\SYSTEM\EXPORT.HPP
D:\LABS\4 YR\DIPLOMA\LIFE2.0\SFML\INCLUDE\SFML\SYSTEM\TIME.HPP
D:\LABS\4 YR\DIPLOMA\LIFE2.0\SFML\INCLUDE\SFML\SYSTEM\ERR.HPP
D:\LABS\4 YR\DIPLOMA\LIFE2.0\SFML\INCLUDE\SFML\SYSTEM\FILEINPUTSTREAM.HPP
D:\LABS\4 YR\DIPLOMA\LIFE2.0\SFML\INCLUDE\SFML\SYSTEM\INPUTSTREAM.HPP
D:\LABS\4 YR\DIPLOMA\LIFE2.0\SFML\INCLUDE\SFML\SYSTEM\NONCOPYABLE.HPP
D:\LABS\4 YR\DIPLOMA\LIFE2.0\SFML\INCLUDE\SFML\SYSTEM\LOCK.HPP
D:\LABS\4 YR\DIPLOMA\LIFE2.0\SFML\INCLUDE\SFML\SYSTEM\MEMORYINPUTSTREAM.HPP
D:\LABS\4 YR\DIPLOMA\LIFE2.0\SFML\INCLUDE\SFML\SYSTEM\MUTEX.HPP
D:\LABS\4 YR\DIPLOMA\LIFE2.0\SFML\INCLUDE\SFML\SYSTEM\SLEEP.HPP
D:\LABS\4 YR\DIPLOMA\LIFE2.0\SFML\INCLUDE\SFML\SYSTEM\STRING.HPP
D:\LABS\4 YR\DIPLOMA\LIFE2.0\SFML\INCLUDE\SFML\SYSTEM\UTF.HPP
C:\PROGRAM FILES (X86)\MICROSOFT VISUAL STUDIO 14.0\VC\INCLUDE\ALGORITHM
C:\PROGRAM FILES (X86)\MICROSOFT VISUAL STUDIO 14.0\VC\INCLUDE\LOCALE
C:\PROGRAM FILES (X86)\MICROSOFT VISUAL STUDIO 14.0\VC\INCLUDE\XLOCBUF
C:\PROGRAM FILES (X86)\MICROSOFT VISUAL STUDIO 14.0\VC\INCLUDE\XLOCMES
C:\PROGRAM FILES (X86)\MICROSOFT VISUAL STUDIO 14.0\VC\INCLUDE\XLOCMON
C:\PROGRAM FILES (X86)\MICROSOFT VISUAL STUDIO 14.0\VC\INCLUDE\XLOCTIME
C:\PROGRAM FILES (X86)\MICROSOFT VISUAL STUDIO 14.0\VC\INCLUDE\CTIME
D:\LABS\4 YR\DIPLOMA\LIFE2.0\SFML\INCLUDE\SFML\SYSTEM\UTF.INL
D:\LABS\4 YR\DIPLOMA\LIFE2.0\SFML\INCLUDE\SFML\SYSTEM\STRING.INL
D:\LABS\4 YR\DIPLOMA\LIFE2.0\SFML\INCLUDE\SFML\SYSTEM\THREAD.HPP
D:\LABS\4 YR\DIPLOMA\LIFE2.0\SFML\INCLUDE\SFML\SYSTEM\THREAD.INL
D:\LABS\4 YR\DIPLOMA\LIFE2.0\SFML\INCLUDE\SFML\SYSTEM\THREADLOCAL.HPP
D:\LABS\4 YR\DIPLOMA\LIFE2.0\SFML\INCLUDE\SFML\SYSTEM\THREADLOCALPTR.HPP
D:\LABS\4 YR\DIPLOMA\LIFE2.0\SFML\INCLUDE\SFML\SYSTEM\THREADLOCALPTR.INL
D:\LABS\4 YR\DIPLOMA\LIFE2.0\SFML\INCLUDE\SFML\SYSTEM\VECTOR2.HPP
D:\LABS\4 YR\DIPLOMA\LIFE2.0\SFML\INCLUDE\SFML\SYSTEM\VECTOR2.INL
D:\LABS\4 YR\DIPLOMA\LIFE2.0\SFML\INCLUDE\SFML\SYSTEM\VECTOR3.HPP
D:\LABS\4 YR\DIPLOMA\LIFE2.0\SFML\INCLUDE\SFML\SYSTEM\VECTOR3.INL
D:\LABS\4 YR\DIPLOMA\LIFE2.0\SFML\INCLUDE\SFML\WINDOW\CONTEXT.HPP
D:\LABS\4 YR\DIPLOMA\LIFE2.0\SFML\INCLUDE\SFML\WINDOW\EXPORT.HPP
D:\LABS\4 YR\DIPLOMA\LIFE2.0\SFML\INCLUDE\SFML\WINDOW\GLRESOURCE.HPP
D:\LABS\4 YR\DIPLOMA\LIFE2.0\SFML\INCLUDE\SFML\WINDOW\CONTEXTSETTINGS.HPP
D:\LABS\4 YR\DIPLOMA\LIFE2.0\SFML\INCLUDE\SFML\WINDOW\EVENT.HPP
D:\LABS\4 YR\DIPLOMA\LIFE2.0\SFML\INCLUDE\SFML\WINDOW\JOYSTICK.HPP
D:\LABS\4 YR\DIPLOMA\LIFE2.0\SFML\INCLUDE\SFML\WINDOW\KEYBOARD.HPP
D:\LABS\4 YR\DIPLOMA\LIFE2.0\SFML\INCLUDE\SFML\WINDOW\MOUSE.HPP
D:\LABS\4 YR\DIPLOMA\LIFE2.0\SFML\INCLUDE\SFML\WINDOW\SENSOR.HPP
D:\LABS\4 YR\DIPLOMA\LIFE2.0\SFML\INCLUDE\SFML\WINDOW\TOUCH.HPP
D:\LABS\4 YR\DIPLOMA\LIFE2.0\SFML\INCLUDE\SFML\WINDOW\VIDEOMODE.HPP
D:\LABS\4 YR\DIPLOMA\LIFE2.0\SFML\INCLUDE\SFML\WINDOW\WINDOW.HPP
D:\LABS\4 YR\DIPLOMA\LIFE2.0\SFML\INCLUDE\SFML\WINDOW\WINDOWHANDLE.HPP
D:\LABS\4 YR\DIPLOMA\LIFE2.0\SFML\INCLUDE\SFML\WINDOW\WINDOWSTYLE.HPP
D:\LABS\4 YR\DIPLOMA\LIFE2.0\SFML\INCLUDE\SFML\GRAPHICS\BLENDMODE.HPP
D:\LABS\4 YR\DIPLOMA\LIFE2.0\SFML\INCLUDE\SFML\GRAPHICS\EXPORT.HPP
D:\LABS\4 YR\DIPLOMA\LIFE2.0\SFML\INCLUDE\SFML\GRAPHICS\CIRCLESHAPE.HPP
D:\LABS\4 YR\DIPLOMA\LIFE2.0\SFML\INCLUDE\SFML\GRAPHICS\SHAPE.HPP
D:\LABS\4 YR\DIPLOMA\LIFE2.0\SFML\INCLUDE\SFML\GRAPHICS\DRAWABLE.HPP
D:\LABS\4 YR\DIPLOMA\LIFE2.0\SFML\INCLUDE\SFML\GRAPHICS\RENDERSTATES.HPP
D:\LABS\4 YR\DIPLOMA\LIFE2.0\SFML\INCLUDE\SFML\GRAPHICS\TRANSFORM.HPP
D:\LABS\4 YR\DIPLOMA\LIFE2.0\SFML\INCLUDE\SFML\GRAPHICS\RECT.HPP
D:\LABS\4 YR\DIPLOMA\LIFE2.0\SFML\INCLUDE\SFML\GRAPHICS\RECT.INL
D:\LABS\4 YR\DIPLOMA\LIFE2.0\SFML\INCLUDE\SFML\GRAPHICS\TRANSFORMABLE.HPP
D:\LABS\4 YR\DIPLOMA\LIFE2.0\SFML\INCLUDE\SFML\GRAPHICS\VERTEXARRAY.HPP
D:\LABS\4 YR\DIPLOMA\LIFE2.0\SFML\INCLUDE\SFML\GRAPHICS\VERTEX.HPP
D:\LABS\4 YR\DIPLOMA\LIFE2.0\SFML\INCLUDE\SFML\GRAPHICS\COLOR.HPP
D:\LABS\4 YR\DIPLOMA\LIFE2.0\SFML\INCLUDE\SFML\GRAPHICS\PRIMITIVETYPE.HPP
D:\LABS\4 YR\DIPLOMA\LIFE2.0\SFML\INCLUDE\SFML\GRAPHICS\CONVEXSHAPE.HPP
D:\LABS\4 YR\DIPLOMA\LIFE2.0\SFML\INCLUDE\SFML\GRAPHICS\FONT.HPP
D:\LABS\4 YR\DIPLOMA\LIFE2.0\SFML\INCLUDE\SFML\GRAPHICS\GLYPH.HPP
D:\LABS\4 YR\DIPLOMA\LIFE2.0\SFML\INCLUDE\SFML\GRAPHICS\TEXTURE.HPP
D:\LABS\4 YR\DIPLOMA\LIFE2.0\SFML\INCLUDE\SFML\GRAPHICS\IMAGE.HPP
C:\PROGRAM FILES (X86)\MICROSOFT VISUAL STUDIO 14.0\VC\INCLUDE\MAP
C:\PROGRAM FILES (X86)\MICROSOFT VISUAL STUDIO 14.0\VC\INCLUDE\TUPLE
C:\PROGRAM FILES (X86)\MICROSOFT VISUAL STUDIO 14.0\VC\INCLUDE\XTREE
D:\LABS\4 YR\DIPLOMA\LIFE2.0\SFML\INCLUDE\SFML\GRAPHICS\RECTANGLESHAPE.HPP
D:\LABS\4 YR\DIPLOMA\LIFE2.0\SFML\INCLUDE\SFML\GRAPHICS\RENDERTARGET.HPP
D:\LABS\4 YR\DIPLOMA\LIFE2.0\SFML\INCLUDE\SFML\GRAPHICS\VIEW.HPP
D:\LABS\4 YR\DIPLOMA\LIFE2.0\SFML\INCLUDE\SFML\GRAPHICS\RENDERTEXTURE.HPP
D:\LABS\4 YR\DIPLOMA\LIFE2.0\SFML\INCLUDE\SFML\GRAPHICS\RENDERWINDOW.HPP
D:\LABS\4 YR\DIPLOMA\LIFE2.0\SFML\INCLUDE\SFML\GRAPHICS\SHADER.HPP
D:\LABS\4 YR\DIPLOMA\LIFE2.0\SFML\INCLUDE\SFML\GRAPHICS\GLSL.HPP
D:\LABS\4 YR\DIPLOMA\LIFE2.0\SFML\INCLUDE\SFML\GRAPHICS\GLSL.INL
D:\LABS\4 YR\DIPLOMA\LIFE2.0\SFML\INCLUDE\SFML\GRAPHICS\SPRITE.HPP
D:\LABS\4 YR\DIPLOMA\LIFE2.0\SFML\INCLUDE\SFML\GRAPHICS\TEXT.HPP
D:\LABS\4 YR\DIPLOMA\LIFE2.0\LIFE2.0\TIMETEST.H
C:\PROGRAM FILES (X86)\MICROSOFT VISUAL STUDIO 14.0\VC\INCLUDE\IOSTREAM
^D:\LABS\4 YR\DIPLOMA\LIFE2.0\LIFE2.0\GUI.CPP
D:\LABS\4 YR\DIPLOMA\LIFE2.0\LIFE2.0\STDAFX.H
D:\LABS\4 YR\DIPLOMA\LIFE2.0\LIFE2.0\TARGETVER.H
C:\PROGRAM FILES (X86)\WINDOWS KITS\8.1\INCLUDE\SHARED\SDKDDKVER.H
C:\PROGRAM FILES (X86)\WINDOWS KITS\10\INCLUDE\10.0.10240.0\UCRT\STDIO.H
C:\PROGRAM FILES (X86)\WINDOWS KITS\10\INCLUDE\10.0.10240.0\UCRT\CORECRT.H
C:\PROGRAM FILES (X86)\MICROSOFT VISUAL STUDIO 14.0\VC\INCLUDE\VCRUNTIME.H
C:\PROGRAM FILES (X86)\MICROSOFT VISUAL STUDIO 14.0\VC\INCLUDE\SAL.H
C:\PROGRAM FILES (X86)\MICROSOFT VISUAL STUDIO 14.0\VC\INCLUDE\CONCURRENCYSAL.H
C:\PROGRAM FILES (X86)\MICROSOFT VISUAL STUDIO 14.0\VC\INCLUDE\VADEFS.H
C:\PROGRAM FILES (X86)\WINDOWS KITS\10\INCLUDE\10.0.10240.0\UCRT\CORECRT_WSTDIO.H
C:\PROGRAM FILES (X86)\WINDOWS KITS\10\INCLUDE\10.0.10240.0\UCRT\CORECRT_STDIO_CONFIG.H
C:\PROGRAM FILES (X86)\WINDOWS KITS\10\INCLUDE\10.0.10240.0\UCRT\TCHAR.H
C:\PROGRAM FILES (X86)\WINDOWS KITS\10\INCLUDE\10.0.10240.0\UCRT\WCHAR.H
C:\PROGRAM FILES (X86)\WINDOWS KITS\10\INCLUDE\10.0.10240.0\UCRT\CORECRT_MEMCPY_S.H
C:\PROGRAM FILES (X86)\WINDOWS KITS\10\INCLUDE\10.0.10240.0\UCRT\ERRNO.H
C:\PROGRAM FILES (X86)\MICROSOFT VISUAL STUDIO 14.0\VC\INCLUDE\VCRUNTIME_STRING.H
C:\PROGRAM FILES (X86)\WINDOWS KITS\10\INCLUDE\10.0.10240.0\UCRT\CORECRT_WCONIO.H
C:\PROGRAM FILES (X86)\WINDOWS KITS\10\INCLUDE\10.0.10240.0\UCRT\CORECRT_WCTYPE.H
C:\PROGRAM FILES (X86)\WINDOWS KITS\10\INCLUDE\10.0.10240.0\UCRT\CORECRT_WDIRECT.H
C:\PROGRAM FILES (X86)\WINDOWS KITS\10\INCLUDE\10.0.10240.0\UCRT\CORECRT_WIO.H
C:\PROGRAM FILES (X86)\WINDOWS KITS\10\INCLUDE\10.0.10240.0\UCRT\CORECRT_SHARE.H
C:\PROGRAM FILES (X86)\WINDOWS KITS\10\INCLUDE\10.0.10240.0\UCRT\CORECRT_WPROCESS.H
C:\PROGRAM FILES (X86)\WINDOWS KITS\10\INCLUDE\10.0.10240.0\UCRT\CORECRT_WSTDLIB.H
C:\PROGRAM FILES (X86)\WINDOWS KITS\10\INCLUDE\10.0.10240.0\UCRT\CORECRT_WSTRING.H
C:\PROGRAM FILES (X86)\WINDOWS KITS\10\INCLUDE\10.0.10240.0\UCRT\CORECRT_WTIME.H
C:\PROGRAM FILES (X86)\WINDOWS KITS\10\INCLUDE\10.0.10240.0\UCRT\SYS\STAT.H
C:\PROGRAM FILES (X86)\WINDOWS KITS\10\INCLUDE\10.0.10240.0\UCRT\SYS\TYPES.H
D:\LABS\4 YR\DIPLOMA\LIFE2.0\LIFE2.0\GUI.H
D:\LABS\4 YR\DIPLOMA\LIFE2.0\SFML\INCLUDE\SFML\GRAPHICS.HPP
D:\LABS\4 YR\DIPLOMA\LIFE2.0\SFML\INCLUDE\SFML\WINDOW.HPP
D:\LABS\4 YR\DIPLOMA\LIFE2.0\SFML\INCLUDE\SFML\SYSTEM.HPP
D:\LABS\4 YR\DIPLOMA\LIFE2.0\SFML\INCLUDE\SFML\CONFIG.HPP
D:\LABS\4 YR\DIPLOMA\LIFE2.0\SFML\INCLUDE\SFML\SYSTEM\CLOCK.HPP
D:\LABS\4 YR\DIPLOMA\LIFE2.0\SFML\INCLUDE\SFML\SYSTEM\EXPORT.HPP
D:\LABS\4 YR\DIPLOMA\LIFE2.0\SFML\INCLUDE\SFML\SYSTEM\TIME.HPP
D:\LABS\4 YR\DIPLOMA\LIFE2.0\SFML\INCLUDE\SFML\SYSTEM\ERR.HPP
C:\PROGRAM FILES (X86)\MICROSOFT VISUAL STUDIO 14.0\VC\INCLUDE\OSTREAM
C:\PROGRAM FILES (X86)\MICROSOFT VISUAL STUDIO 14.0\VC\INCLUDE\IOS
C:\PROGRAM FILES (X86)\MICROSOFT VISUAL STUDIO 14.0\VC\INCLUDE\XLOCNUM
C:\PROGRAM FILES (X86)\MICROSOFT VISUAL STUDIO 14.0\VC\INCLUDE\CLIMITS
C:\PROGRAM FILES (X86)\MICROSOFT VISUAL STUDIO 14.0\VC\INCLUDE\YVALS.H
C:\PROGRAM FILES (X86)\MICROSOFT VISUAL STUDIO 14.0\VC\INCLUDE\XKEYCHECK.H
C:\PROGRAM FILES (X86)\MICROSOFT VISUAL STUDIO 14.0\VC\INCLUDE\CRTDEFS.H
C:\PROGRAM FILES (X86)\MICROSOFT VISUAL STUDIO 14.0\VC\INCLUDE\USE_ANSI.H
C:\PROGRAM FILES (X86)\MICROSOFT VISUAL STUDIO 14.0\VC\INCLUDE\LIMITS.H
C:\PROGRAM FILES (X86)\MICROSOFT VISUAL STUDIO 14.0\VC\INCLUDE\CMATH
C:\PROGRAM FILES (X86)\WINDOWS KITS\10\INCLUDE\10.0.10240.0\UCRT\MATH.H
C:\PROGRAM FILES (X86)\MICROSOFT VISUAL STUDIO 14.0\VC\INCLUDE\XTGMATH.H
C:\PROGRAM FILES (X86)\MICROSOFT VISUAL STUDIO 14.0\VC\INCLUDE\XTR1COMMON
C:\PROGRAM FILES (X86)\MICROSOFT VISUAL STUDIO 14.0\VC\INCLUDE\CSTDLIB
C:\PROGRAM FILES (X86)\WINDOWS KITS\10\INCLUDE\10.0.10240.0\UCRT\STDLIB.H
C:\PROGRAM FILES (X86)\WINDOWS KITS\10\INCLUDE\10.0.10240.0\UCRT\CORECRT_MALLOC.H
C:\PROGRAM FILES (X86)\WINDOWS KITS\10\INCLUDE\10.0.10240.0\UCRT\CORECRT_SEARCH.H
C:\PROGRAM FILES (X86)\WINDOWS KITS\10\INCLUDE\10.0.10240.0\UCRT\STDDEF.H
C:\PROGRAM FILES (X86)\MICROSOFT VISUAL STUDIO 14.0\VC\INCLUDE\CSTDIO
C:\PROGRAM FILES (X86)\MICROSOFT VISUAL STUDIO 14.0\VC\INCLUDE\STREAMBUF
C:\PROGRAM FILES (X86)\MICROSOFT VISUAL STUDIO 14.0\VC\INCLUDE\XIOSBASE
C:\PROGRAM FILES (X86)\MICROSOFT VISUAL STUDIO 14.0\VC\INCLUDE\XLOCALE
C:\PROGRAM FILES (X86)\MICROSOFT VISUAL STUDIO 14.0\VC\INCLUDE\CSTRING
C:\PROGRAM FILES (X86)\WINDOWS KITS\10\INCLUDE\10.0.10240.0\UCRT\STRING.H
C:\PROGRAM FILES (X86)\WINDOWS KITS\10\INCLUDE\10.0.10240.0\UCRT\CORECRT_MEMORY.H
C:\PROGRAM FILES (X86)\MICROSOFT VISUAL STUDIO 14.0\VC\INCLUDE\STDEXCEPT
C:\PROGRAM FILES (X86)\MICROSOFT VISUAL STUDIO 14.0\VC\INCLUDE\EXCEPTION
C:\PROGRAM FILES (X86)\MICROSOFT VISUAL STUDIO 14.0\VC\INCLUDE\TYPE_TRAITS
C:\PROGRAM FILES (X86)\MICROSOFT VISUAL STUDIO 14.0\VC\INCLUDE\XSTDDEF
C:\PROGRAM FILES (X86)\MICROSOFT VISUAL STUDIO 14.0\VC\INCLUDE\CSTDDEF
C:\PROGRAM FILES (X86)\MICROSOFT VISUAL STUDIO 14.0\VC\INCLUDE\INITIALIZER_LIST
C:\PROGRAM FILES (X86)\WINDOWS KITS\10\INCLUDE\10.0.10240.0\UCRT\MALLOC.H
C:\PROGRAM FILES (X86)\MICROSOFT VISUAL STUDIO 14.0\VC\INCLUDE\VCRUNTIME_EXCEPTION.H
C:\PROGRAM FILES (X86)\MICROSOFT VISUAL STUDIO 14.0\VC\INCLUDE\EH.H
C:\PROGRAM FILES (X86)\WINDOWS KITS\10\INCLUDE\10.0.10240.0\UCRT\CORECRT_TERMINATE.H
C:\PROGRAM FILES (X86)\MICROSOFT VISUAL STUDIO 14.0\VC\INCLUDE\XSTRING
C:\PROGRAM FILES (X86)\MICROSOFT VISUAL STUDIO 14.0\VC\INCLUDE\XMEMORY0
C:\PROGRAM FILES (X86)\MICROSOFT VISUAL STUDIO 14.0\VC\INCLUDE\CSTDINT
C:\PROGRAM FILES (X86)\MICROSOFT VISUAL STUDIO 14.0\VC\INCLUDE\STDINT.H
C:\PROGRAM FILES (X86)\MICROSOFT VISUAL STUDIO 14.0\VC\INCLUDE\LIMITS
C:\PROGRAM FILES (X86)\MICROSOFT VISUAL STUDIO 14.0\VC\INCLUDE\YMATH.H
C:\PROGRAM FILES (X86)\MICROSOFT VISUAL STUDIO 14.0\VC\INCLUDE\CFLOAT
C:\PROGRAM FILES (X86)\WINDOWS KITS\10\INCLUDE\10.0.10240.0\UCRT\FLOAT.H
C:\PROGRAM FILES (X86)\MICROSOFT VISUAL STUDIO 14.0\VC\INCLUDE\CWCHAR
C:\PROGRAM FILES (X86)\MICROSOFT VISUAL STUDIO 14.0\VC\INCLUDE\NEW
C:\PROGRAM FILES (X86)\MICROSOFT VISUAL STUDIO 14.0\VC\INCLUDE\VCRUNTIME_NEW.H
C:\PROGRAM FILES (X86)\MICROSOFT VISUAL STUDIO 14.0\VC\INCLUDE\XUTILITY
C:\PROGRAM FILES (X86)\MICROSOFT VISUAL STUDIO 14.0\VC\INCLUDE\UTILITY
C:\PROGRAM FILES (X86)\MICROSOFT VISUAL STUDIO 14.0\VC\INCLUDE\IOSFWD
C:\PROGRAM FILES (X86)\WINDOWS KITS\10\INCLUDE\10.0.10240.0\UCRT\CRTDBG.H
C:\PROGRAM FILES (X86)\MICROSOFT VISUAL STUDIO 14.0\VC\INCLUDE\VCRUNTIME_NEW_DEBUG.H
C:\PROGRAM FILES (X86)\MICROSOFT VISUAL STUDIO 14.0\VC\INCLUDE\XATOMIC0.H
C:\PROGRAM FILES (X86)\MICROSOFT VISUAL STUDIO 14.0\VC\INCLUDE\INTRIN.H
C:\PROGRAM FILES (X86)\MICROSOFT VISUAL STUDIO 14.0\VC\INCLUDE\SETJMP.H
C:\PROGRAM FILES (X86)\MICROSOFT VISUAL STUDIO 14.0\VC\INCLUDE\IMMINTRIN.H
C:\PROGRAM FILES (X86)\MICROSOFT VISUAL STUDIO 14.0\VC\INCLUDE\WMMINTRIN.H
C:\PROGRAM FILES (X86)\MICROSOFT VISUAL STUDIO 14.0\VC\INCLUDE\NMMINTRIN.H
C:\PROGRAM FILES (X86)\MICROSOFT VISUAL STUDIO 14.0\VC\INCLUDE\SMMINTRIN.H
C:\PROGRAM FILES (X86)\MICROSOFT VISUAL STUDIO 14.0\VC\INCLUDE\TMMINTRIN.H
C:\PROGRAM FILES (X86)\MICROSOFT VISUAL STUDIO 14.0\VC\INCLUDE\PMMINTRIN.H
C:\PROGRAM FILES (X86)\MICROSOFT VISUAL STUDIO 14.0\VC\INCLUDE\EMMINTRIN.H
C:\PROGRAM FILES (X86)\MICROSOFT VISUAL STUDIO 14.0\VC\INCLUDE\XMMINTRIN.H
C:\PROGRAM FILES (X86)\MICROSOFT VISUAL STUDIO 14.0\VC\INCLUDE\MMINTRIN.H
C:\PROGRAM FILES (X86)\MICROSOFT VISUAL STUDIO 14.0\VC\INCLUDE\AMMINTRIN.H
C:\PROGRAM FILES (X86)\MICROSOFT VISUAL STUDIO 14.0\VC\INCLUDE\MM3DNOW.H
C:\PROGRAM FILES (X86)\MICROSOFT VISUAL STUDIO 14.0\VC\INCLUDE\TYPEINFO
C:\PROGRAM FILES (X86)\MICROSOFT VISUAL STUDIO 14.0\VC\INCLUDE\VCRUNTIME_TYPEINFO.H
C:\PROGRAM FILES (X86)\MICROSOFT VISUAL STUDIO 14.0\VC\INCLUDE\XLOCINFO
C:\PROGRAM FILES (X86)\MICROSOFT VISUAL STUDIO 14.0\VC\INCLUDE\XLOCINFO.H
C:\PROGRAM FILES (X86)\WINDOWS KITS\10\INCLUDE\10.0.10240.0\UCRT\CTYPE.H
C:\PROGRAM FILES (X86)\WINDOWS KITS\10\INCLUDE\10.0.10240.0\UCRT\LOCALE.H
C:\PROGRAM FILES (X86)\MICROSOFT VISUAL STUDIO 14.0\VC\INCLUDE\XFACET
C:\PROGRAM FILES (X86)\MICROSOFT VISUAL STUDIO 14.0\VC\INCLUDE\SYSTEM_ERROR
C:\PROGRAM FILES (X86)\MICROSOFT VISUAL STUDIO 14.0\VC\INCLUDE\CERRNO
C:\PROGRAM FILES (X86)\WINDOWS KITS\10\INCLUDE\10.0.10240.0\UCRT\SHARE.H
D:\LABS\4 YR\DIPLOMA\LIFE2.0\SFML\INCLUDE\SFML\SYSTEM\FILEINPUTSTREAM.HPP
D:\LABS\4 YR\DIPLOMA\LIFE2.0\SFML\INCLUDE\SFML\SYSTEM\INPUTSTREAM.HPP
D:\LABS\4 YR\DIPLOMA\LIFE2.0\SFML\INCLUDE\SFML\SYSTEM\NONCOPYABLE.HPP
C:\PROGRAM FILES (X86)\MICROSOFT VISUAL STUDIO 14.0\VC\INCLUDE\STRING
C:\PROGRAM FILES (X86)\MICROSOFT VISUAL STUDIO 14.0\VC\INCLUDE\ISTREAM
D:\LABS\4 YR\DIPLOMA\LIFE2.0\SFML\INCLUDE\SFML\SYSTEM\LOCK.HPP
D:\LABS\4 YR\DIPLOMA\LIFE2.0\SFML\INCLUDE\SFML\SYSTEM\MEMORYINPUTSTREAM.HPP
D:\LABS\4 YR\DIPLOMA\LIFE2.0\SFML\INCLUDE\SFML\SYSTEM\MUTEX.HPP
D:\LABS\4 YR\DIPLOMA\LIFE2.0\SFML\INCLUDE\SFML\SYSTEM\SLEEP.HPP
D:\LABS\4 YR\DIPLOMA\LIFE2.0\SFML\INCLUDE\SFML\SYSTEM\STRING.HPP
D:\LABS\4 YR\DIPLOMA\LIFE2.0\SFML\INCLUDE\SFML\SYSTEM\UTF.HPP
C:\PROGRAM FILES (X86)\MICROSOFT VISUAL STUDIO 14.0\VC\INCLUDE\ALGORITHM
C:\PROGRAM FILES (X86)\MICROSOFT VISUAL STUDIO 14.0\VC\INCLUDE\XMEMORY
C:\PROGRAM FILES (X86)\MICROSOFT VISUAL STUDIO 14.0\VC\INCLUDE\LOCALE
C:\PROGRAM FILES (X86)\MICROSOFT VISUAL STUDIO 14.0\VC\INCLUDE\XLOCBUF
C:\PROGRAM FILES (X86)\MICROSOFT VISUAL STUDIO 14.0\VC\INCLUDE\XLOCMES
C:\PROGRAM FILES (X86)\MICROSOFT VISUAL STUDIO 14.0\VC\INCLUDE\XLOCMON
C:\PROGRAM FILES (X86)\MICROSOFT VISUAL STUDIO 14.0\VC\INCLUDE\XLOCTIME
C:\PROGRAM FILES (X86)\MICROSOFT VISUAL STUDIO 14.0\VC\INCLUDE\CTIME
C:\PROGRAM FILES (X86)\WINDOWS KITS\10\INCLUDE\10.0.10240.0\UCRT\TIME.H
D:\LABS\4 YR\DIPLOMA\LIFE2.0\SFML\INCLUDE\SFML\SYSTEM\UTF.INL
C:\PROGRAM FILES (X86)\MICROSOFT VISUAL STUDIO 14.0\VC\INCLUDE\ITERATOR
D:\LABS\4 YR\DIPLOMA\LIFE2.0\SFML\INCLUDE\SFML\SYSTEM\STRING.INL
D:\LABS\4 YR\DIPLOMA\LIFE2.0\SFML\INCLUDE\SFML\SYSTEM\THREAD.HPP
D:\LABS\4 YR\DIPLOMA\LIFE2.0\SFML\INCLUDE\SFML\SYSTEM\THREAD.INL
D:\LABS\4 YR\DIPLOMA\LIFE2.0\SFML\INCLUDE\SFML\SYSTEM\THREADLOCAL.HPP
D:\LABS\4 YR\DIPLOMA\LIFE2.0\SFML\INCLUDE\SFML\SYSTEM\THREADLOCALPTR.HPP
D:\LABS\4 YR\DIPLOMA\LIFE2.0\SFML\INCLUDE\SFML\SYSTEM\THREADLOCALPTR.INL
D:\LABS\4 YR\DIPLOMA\LIFE2.0\SFML\INCLUDE\SFML\SYSTEM\VECTOR2.HPP
D:\LABS\4 YR\DIPLOMA\LIFE2.0\SFML\INCLUDE\SFML\SYSTEM\VECTOR2.INL
D:\LABS\4 YR\DIPLOMA\LIFE2.0\SFML\INCLUDE\SFML\SYSTEM\VECTOR3.HPP
D:\LABS\4 YR\DIPLOMA\LIFE2.0\SFML\INCLUDE\SFML\SYSTEM\VECTOR3.INL
D:\LABS\4 YR\DIPLOMA\LIFE2.0\SFML\INCLUDE\SFML\WINDOW\CONTEXT.HPP
D:\LABS\4 YR\DIPLOMA\LIFE2.0\SFML\INCLUDE\SFML\WINDOW\EXPORT.HPP
D:\LABS\4 YR\DIPLOMA\LIFE2.0\SFML\INCLUDE\SFML\WINDOW\GLRESOURCE.HPP
D:\LABS\4 YR\DIPLOMA\LIFE2.0\SFML\INCLUDE\SFML\WINDOW\CONTEXTSETTINGS.HPP
D:\LABS\4 YR\DIPLOMA\LIFE2.0\SFML\INCLUDE\SFML\WINDOW\EVENT.HPP
D:\LABS\4 YR\DIPLOMA\LIFE2.0\SFML\INCLUDE\SFML\WINDOW\JOYSTICK.HPP
D:\LABS\4 YR\DIPLOMA\LIFE2.0\SFML\INCLUDE\SFML\WINDOW\KEYBOARD.HPP
D:\LABS\4 YR\DIPLOMA\LIFE2.0\SFML\INCLUDE\SFML\WINDOW\MOUSE.HPP
D:\LABS\4 YR\DIPLOMA\LIFE2.0\SFML\INCLUDE\SFML\WINDOW\SENSOR.HPP
D:\LABS\4 YR\DIPLOMA\LIFE2.0\SFML\INCLUDE\SFML\WINDOW\TOUCH.HPP
D:\LABS\4 YR\DIPLOMA\LIFE2.0\SFML\INCLUDE\SFML\WINDOW\VIDEOMODE.HPP
C:\PROGRAM FILES (X86)\MICROSOFT VISUAL STUDIO 14.0\VC\INCLUDE\VECTOR
D:\LABS\4 YR\DIPLOMA\LIFE2.0\SFML\INCLUDE\SFML\WINDOW\WINDOW.HPP
D:\LABS\4 YR\DIPLOMA\LIFE2.0\SFML\INCLUDE\SFML\WINDOW\WINDOWHANDLE.HPP
D:\LABS\4 YR\DIPLOMA\LIFE2.0\SFML\INCLUDE\SFML\WINDOW\WINDOWSTYLE.HPP
D:\LABS\4 YR\DIPLOMA\LIFE2.0\SFML\INCLUDE\SFML\GRAPHICS\BLENDMODE.HPP
D:\LABS\4 YR\DIPLOMA\LIFE2.0\SFML\INCLUDE\SFML\GRAPHICS\EXPORT.HPP
D:\LABS\4 YR\DIPLOMA\LIFE2.0\SFML\INCLUDE\SFML\GRAPHICS\CIRCLESHAPE.HPP
D:\LABS\4 YR\DIPLOMA\LIFE2.0\SFML\INCLUDE\SFML\GRAPHICS\SHAPE.HPP
D:\LABS\4 YR\DIPLOMA\LIFE2.0\SFML\INCLUDE\SFML\GRAPHICS\DRAWABLE.HPP
D:\LABS\4 YR\DIPLOMA\LIFE2.0\SFML\INCLUDE\SFML\GRAPHICS\RENDERSTATES.HPP
D:\LABS\4 YR\DIPLOMA\LIFE2.0\SFML\INCLUDE\SFML\GRAPHICS\TRANSFORM.HPP
D:\LABS\4 YR\DIPLOMA\LIFE2.0\SFML\INCLUDE\SFML\GRAPHICS\RECT.HPP
D:\LABS\4 YR\DIPLOMA\LIFE2.0\SFML\INCLUDE\SFML\GRAPHICS\RECT.INL
D:\LABS\4 YR\DIPLOMA\LIFE2.0\SFML\INCLUDE\SFML\GRAPHICS\TRANSFORMABLE.HPP
D:\LABS\4 YR\DIPLOMA\LIFE2.0\SFML\INCLUDE\SFML\GRAPHICS\VERTEXARRAY.HPP
D:\LABS\4 YR\DIPLOMA\LIFE2.0\SFML\INCLUDE\SFML\GRAPHICS\VERTEX.HPP
D:\LABS\4 YR\DIPLOMA\LIFE2.0\SFML\INCLUDE\SFML\GRAPHICS\COLOR.HPP
D:\LABS\4 YR\DIPLOMA\LIFE2.0\SFML\INCLUDE\SFML\GRAPHICS\PRIMITIVETYPE.HPP
D:\LABS\4 YR\DIPLOMA\LIFE2.0\SFML\INCLUDE\SFML\GRAPHICS\CONVEXSHAPE.HPP
D:\LABS\4 YR\DIPLOMA\LIFE2.0\SFML\INCLUDE\SFML\GRAPHICS\FONT.HPP
D:\LABS\4 YR\DIPLOMA\LIFE2.0\SFML\INCLUDE\SFML\GRAPHICS\GLYPH.HPP
D:\LABS\4 YR\DIPLOMA\LIFE2.0\SFML\INCLUDE\SFML\GRAPHICS\TEXTURE.HPP
D:\LABS\4 YR\DIPLOMA\LIFE2.0\SFML\INCLUDE\SFML\GRAPHICS\IMAGE.HPP
C:\PROGRAM FILES (X86)\MICROSOFT VISUAL STUDIO 14.0\VC\INCLUDE\MAP
C:\PROGRAM FILES (X86)\MICROSOFT VISUAL STUDIO 14.0\VC\INCLUDE\TUPLE
C:\PROGRAM FILES (X86)\MICROSOFT VISUAL STUDIO 14.0\VC\INCLUDE\XTREE
D:\LABS\4 YR\DIPLOMA\LIFE2.0\SFML\INCLUDE\SFML\GRAPHICS\RECTANGLESHAPE.HPP
D:\LABS\4 YR\DIPLOMA\LIFE2.0\SFML\INCLUDE\SFML\GRAPHICS\RENDERTARGET.HPP
D:\LABS\4 YR\DIPLOMA\LIFE2.0\SFML\INCLUDE\SFML\GRAPHICS\VIEW.HPP
D:\LABS\4 YR\DIPLOMA\LIFE2.0\SFML\INCLUDE\SFML\GRAPHICS\RENDERTEXTURE.HPP
D:\LABS\4 YR\DIPLOMA\LIFE2.0\SFML\INCLUDE\SFML\GRAPHICS\RENDERWINDOW.HPP
D:\LABS\4 YR\DIPLOMA\LIFE2.0\SFML\INCLUDE\SFML\GRAPHICS\SHADER.HPP
D:\LABS\4 YR\DIPLOMA\LIFE2.0\SFML\INCLUDE\SFML\GRAPHICS\GLSL.HPP
D:\LABS\4 YR\DIPLOMA\LIFE2.0\SFML\INCLUDE\SFML\GRAPHICS\GLSL.INL
D:\LABS\4 YR\DIPLOMA\LIFE2.0\SFML\INCLUDE\SFML\GRAPHICS\SPRITE.HPP
D:\LABS\4 YR\DIPLOMA\LIFE2.0\SFML\INCLUDE\SFML\GRAPHICS\TEXT.HPP
D:\LABS\4 YR\DIPLOMA\LIFE2.0\LIFE2.0\LOGIC.H
C:\PROGRAM FILES (X86)\WINDOWS KITS\8.1\INCLUDE\UM\WINDOWS.H
C:\PROGRAM FILES (X86)\WINDOWS KITS\8.1\INCLUDE\SHARED\WINAPIFAMILY.H
C:\PROGRAM FILES (X86)\MICROSOFT VISUAL STUDIO 14.0\VC\INCLUDE\EXCPT.H
C:\PROGRAM FILES (X86)\MICROSOFT VISUAL STUDIO 14.0\VC\INCLUDE\STDARG.H
C:\PROGRAM FILES (X86)\WINDOWS KITS\8.1\INCLUDE\SHARED\WINDEF.H
C:\PROGRAM FILES (X86)\WINDOWS KITS\8.1\INCLUDE\SHARED\MINWINDEF.H
C:\PROGRAM FILES (X86)\WINDOWS KITS\8.1\INCLUDE\SHARED\SPECSTRINGS.H
C:\PROGRAM FILES (X86)\WINDOWS KITS\8.1\INCLUDE\SHARED\SPECSTRINGS_STRICT.H
C:\PROGRAM FILES (X86)\WINDOWS KITS\8.1\INCLUDE\SHARED\SPECSTRINGS_UNDEF.H
C:\PROGRAM FILES (X86)\WINDOWS KITS\8.1\INCLUDE\SHARED\DRIVERSPECS.H
C:\PROGRAM FILES (X86)\WINDOWS KITS\8.1\INCLUDE\SHARED\SDV_DRIVERSPECS.H
C:\PROGRAM FILES (X86)\WINDOWS KITS\8.1\INCLUDE\UM\WINNT.H
C:\PROGRAM FILES (X86)\WINDOWS KITS\8.1\INCLUDE\SHARED\KERNELSPECS.H
C:\PROGRAM FILES (X86)\WINDOWS KITS\8.1\INCLUDE\SHARED\BASETSD.H
C:\PROGRAM FILES (X86)\WINDOWS KITS\8.1\INCLUDE\SHARED\GUIDDEF.H
C:\PROGRAM FILES (X86)\WINDOWS KITS\8.1\INCLUDE\SHARED\PSHPACK4.H
C:\PROGRAM FILES (X86)\WINDOWS KITS\8.1\INCLUDE\SHARED\POPPACK.H
C:\PROGRAM FILES (X86)\WINDOWS KITS\8.1\INCLUDE\SHARED\PSHPACK2.H
C:\PROGRAM FILES (X86)\WINDOWS KITS\8.1\INCLUDE\SHARED\PSHPACK8.H
C:\PROGRAM FILES (X86)\WINDOWS KITS\8.1\INCLUDE\SHARED\APISET.H
C:\PROGRAM FILES (X86)\WINDOWS KITS\8.1\INCLUDE\SHARED\KTMTYPES.H
C:\PROGRAM FILES (X86)\WINDOWS KITS\8.1\INCLUDE\UM\WINBASE.H
C:\PROGRAM FILES (X86)\WINDOWS KITS\8.1\INCLUDE\SHARED\APISETCCONV.H
C:\PROGRAM FILES (X86)\WINDOWS KITS\8.1\INCLUDE\UM\MINWINBASE.H
C:\PROGRAM FILES (X86)\WINDOWS KITS\8.1\INCLUDE\UM\PROCESSENV.H
C:\PROGRAM FILES (X86)\WINDOWS KITS\8.1\INCLUDE\UM\FILEAPI.H
C:\PROGRAM FILES (X86)\WINDOWS KITS\8.1\INCLUDE\UM\DEBUGAPI.H
C:\PROGRAM FILES (X86)\WINDOWS KITS\8.1\INCLUDE\UM\UTILAPISET.H
C:\PROGRAM FILES (X86)\WINDOWS KITS\8.1\INCLUDE\UM\HANDLEAPI.H
C:\PROGRAM FILES (X86)\WINDOWS KITS\8.1\INCLUDE\UM\ERRHANDLINGAPI.H
C:\PROGRAM FILES (X86)\WINDOWS KITS\8.1\INCLUDE\UM\FIBERSAPI.H
C:\PROGRAM FILES (X86)\WINDOWS KITS\8.1\INCLUDE\UM\NAMEDPIPEAPI.H
C:\PROGRAM FILES (X86)\WINDOWS KITS\8.1\INCLUDE\UM\PROFILEAPI.H
C:\PROGRAM FILES (X86)\WINDOWS KITS\8.1\INCLUDE\UM\HEAPAPI.H
C:\PROGRAM FILES (X86)\WINDOWS KITS\8.1\INCLUDE\UM\IOAPISET.H
C:\PROGRAM FILES (X86)\WINDOWS KITS\8.1\INCLUDE\UM\SYNCHAPI.H
C:\PROGRAM FILES (X86)\WINDOWS KITS\8.1\INCLUDE\UM\INTERLOCKEDAPI.H
C:\PROGRAM FILES (X86)\WINDOWS KITS\8.1\INCLUDE\UM\PROCESSTHREADSAPI.H
C:\PROGRAM FILES (X86)\WINDOWS KITS\8.1\INCLUDE\UM\SYSINFOAPI.H
C:\PROGRAM FILES (X86)\WINDOWS KITS\8.1\INCLUDE\UM\MEMORYAPI.H
C:\PROGRAM FILES (X86)\WINDOWS KITS\8.1\INCLUDE\UM\THREADPOOLLEGACYAPISET.H
C:\PROGRAM FILES (X86)\WINDOWS KITS\8.1\INCLUDE\UM\THREADPOOLAPISET.H
C:\PROGRAM FILES (X86)\WINDOWS KITS\8.1\INCLUDE\UM\BEMAPISET.H
C:\PROGRAM FILES (X86)\WINDOWS KITS\8.1\INCLUDE\UM\JOBAPI.H
C:\PROGRAM FILES (X86)\WINDOWS KITS\8.1\INCLUDE\UM\WOW64APISET.H
C:\PROGRAM FILES (X86)\WINDOWS KITS\8.1\INCLUDE\UM\LIBLOADERAPI.H
C:\PROGRAM FILES (X86)\WINDOWS KITS\8.1\INCLUDE\UM\SECURITYBASEAPI.H
C:\PROGRAM FILES (X86)\WINDOWS KITS\8.1\INCLUDE\UM\NAMESPACEAPI.H
C:\PROGRAM FILES (X86)\WINDOWS KITS\8.1\INCLUDE\UM\SYSTEMTOPOLOGYAPI.H
C:\PROGRAM FILES (X86)\WINDOWS KITS\8.1\INCLUDE\UM\PROCESSTOPOLOGYAPI.H
C:\PROGRAM FILES (X86)\WINDOWS KITS\8.1\INCLUDE\UM\SECURITYAPPCONTAINER.H
C:\PROGRAM FILES (X86)\WINDOWS KITS\8.1\INCLUDE\UM\REALTIMEAPISET.H
C:\PROGRAM FILES (X86)\WINDOWS KITS\8.1\INCLUDE\SHARED\WINERROR.H
C:\PROGRAM FILES (X86)\WINDOWS KITS\8.1\INCLUDE\UM\TIMEZONEAPI.H
C:\PROGRAM FILES (X86)\WINDOWS KITS\8.1\INCLUDE\UM\WINGDI.H
C:\PROGRAM FILES (X86)\WINDOWS KITS\8.1\INCLUDE\SHARED\PSHPACK1.H
C:\PROGRAM FILES (X86)\WINDOWS KITS\8.1\INCLUDE\UM\WINUSER.H
C:\PROGRAM FILES (X86)\WINDOWS KITS\8.1\INCLUDE\SHARED\TVOUT.H
C:\PROGRAM FILES (X86)\WINDOWS KITS\8.1\INCLUDE\UM\WINNLS.H
C:\PROGRAM FILES (X86)\WINDOWS KITS\8.1\INCLUDE\UM\DATETIMEAPI.H
C:\PROGRAM FILES (X86)\WINDOWS KITS\8.1\INCLUDE\UM\STRINGAPISET.H
C:\PROGRAM FILES (X86)\WINDOWS KITS\8.1\INCLUDE\UM\WINCON.H
C:\PROGRAM FILES (X86)\WINDOWS KITS\8.1\INCLUDE\UM\CONSOLEAPI.H
C:\PROGRAM FILES (X86)\WINDOWS KITS\8.1\INCLUDE\UM\WINVER.H
C:\PROGRAM FILES (X86)\WINDOWS KITS\8.1\INCLUDE\UM\VERRSRC.H
C:\PROGRAM FILES (X86)\WINDOWS KITS\8.1\INCLUDE\UM\WINREG.H
C:\PROGRAM FILES (X86)\WINDOWS KITS\8.1\INCLUDE\UM\REASON.H
C:\PROGRAM FILES (X86)\WINDOWS KITS\8.1\INCLUDE\UM\WINNETWK.H
C:\PROGRAM FILES (X86)\WINDOWS KITS\8.1\INCLUDE\SHARED\WNNC.H
C:\PROGRAM FILES (X86)\WINDOWS KITS\8.1\INCLUDE\SHARED\CDERR.H
C:\PROGRAM FILES (X86)\WINDOWS KITS\8.1\INCLUDE\UM\DDE.H
C:\PROGRAM FILES (X86)\WINDOWS KITS\8.1\INCLUDE\UM\DDEML.H
C:\PROGRAM FILES (X86)\WINDOWS KITS\8.1\INCLUDE\UM\DLGS.H
C:\PROGRAM FILES (X86)\WINDOWS KITS\8.1\INCLUDE\UM\LZEXPAND.H
C:\PROGRAM FILES (X86)\WINDOWS KITS\8.1\INCLUDE\UM\MMSYSTEM.H
C:\PROGRAM FILES (X86)\WINDOWS KITS\8.1\INCLUDE\UM\MMSYSCOM.H
C:\PROGRAM FILES (X86)\WINDOWS KITS\8.1\INCLUDE\UM\MCIAPI.H
C:\PROGRAM FILES (X86)\WINDOWS KITS\8.1\INCLUDE\UM\MMISCAPI.H
C:\PROGRAM FILES (X86)\WINDOWS KITS\8.1\INCLUDE\UM\MMISCAPI2.H
C:\PROGRAM FILES (X86)\WINDOWS KITS\8.1\INCLUDE\UM\PLAYSOUNDAPI.H
C:\PROGRAM FILES (X86)\WINDOWS KITS\8.1\INCLUDE\UM\MMEAPI.H
C:\PROGRAM FILES (X86)\WINDOWS KITS\8.1\INCLUDE\UM\TIMEAPI.H
C:\PROGRAM FILES (X86)\WINDOWS KITS\8.1\INCLUDE\UM\JOYSTICKAPI.H
C:\PROGRAM FILES (X86)\WINDOWS KITS\8.1\INCLUDE\UM\NB30.H
C:\PROGRAM FILES (X86)\WINDOWS KITS\8.1\INCLUDE\SHARED\RPC.H
C:\PROGRAM FILES (X86)\WINDOWS KITS\8.1\INCLUDE\SHARED\RPCDCE.H
C:\PROGRAM FILES (X86)\WINDOWS KITS\8.1\INCLUDE\SHARED\RPCDCEP.H
C:\PROGRAM FILES (X86)\WINDOWS KITS\8.1\INCLUDE\UM\RPCNSI.H
C:\PROGRAM FILES (X86)\WINDOWS KITS\8.1\INCLUDE\SHARED\RPCNTERR.H
C:\PROGRAM FILES (X86)\WINDOWS KITS\8.1\INCLUDE\SHARED\RPCASYNC.H
C:\PROGRAM FILES (X86)\WINDOWS KITS\8.1\INCLUDE\UM\SHELLAPI.H
C:\PROGRAM FILES (X86)\WINDOWS KITS\8.1\INCLUDE\UM\WINPERF.H
C:\PROGRAM FILES (X86)\WINDOWS KITS\8.1\INCLUDE\UM\WINSOCK.H
C:\PROGRAM FILES (X86)\WINDOWS KITS\8.1\INCLUDE\SHARED\INADDR.H
C:\PROGRAM FILES (X86)\WINDOWS KITS\8.1\INCLUDE\UM\WINCRYPT.H
C:\PROGRAM FILES (X86)\WINDOWS KITS\8.1\INCLUDE\SHARED\BCRYPT.H
C:\PROGRAM FILES (X86)\WINDOWS KITS\8.1\INCLUDE\UM\NCRYPT.H
C:\PROGRAM FILES (X86)\WINDOWS KITS\8.1\INCLUDE\UM\DPAPI.H
C:\PROGRAM FILES (X86)\WINDOWS KITS\8.1\INCLUDE\UM\WINEFS.H
C:\PROGRAM FILES (X86)\WINDOWS KITS\8.1\INCLUDE\UM\WINSCARD.H
C:\PROGRAM FILES (X86)\WINDOWS KITS\8.1\INCLUDE\SHARED\WTYPES.H
C:\PROGRAM FILES (X86)\WINDOWS KITS\8.1\INCLUDE\SHARED\RPCNDR.H
C:\PROGRAM FILES (X86)\WINDOWS KITS\8.1\INCLUDE\UM\RPCNSIP.H
C:\PROGRAM FILES (X86)\WINDOWS KITS\8.1\INCLUDE\SHARED\RPCSAL.H
C:\PROGRAM FILES (X86)\WINDOWS KITS\8.1\INCLUDE\SHARED\WTYPESBASE.H
C:\PROGRAM FILES (X86)\WINDOWS KITS\8.1\INCLUDE\UM\WINIOCTL.H
C:\PROGRAM FILES (X86)\WINDOWS KITS\8.1\INCLUDE\SHARED\WINSMCRD.H
C:\PROGRAM FILES (X86)\WINDOWS KITS\8.1\INCLUDE\UM\WINSPOOL.H
C:\PROGRAM FILES (X86)\WINDOWS KITS\8.1\INCLUDE\UM\PRSHT.H
C:\PROGRAM FILES (X86)\WINDOWS KITS\8.1\INCLUDE\UM\OLE2.H
C:\PROGRAM FILES (X86)\WINDOWS KITS\8.1\INCLUDE\UM\OBJBASE.H
C:\PROGRAM FILES (X86)\WINDOWS KITS\8.1\INCLUDE\UM\COMBASEAPI.H
C:\PROGRAM FILES (X86)\WINDOWS KITS\8.1\INCLUDE\UM\UNKNWNBASE.H
C:\PROGRAM FILES (X86)\WINDOWS KITS\8.1\INCLUDE\UM\OBJIDLBASE.H
C:\PROGRAM FILES (X86)\WINDOWS KITS\8.1\INCLUDE\UM\CGUID.H
C:\PROGRAM FILES (X86)\WINDOWS KITS\8.1\INCLUDE\UM\OBJIDL.H
C:\PROGRAM FILES (X86)\WINDOWS KITS\8.1\INCLUDE\UM\UNKNWN.H
C:\PROGRAM FILES (X86)\WINDOWS KITS\8.1\INCLUDE\UM\URLMON.H
C:\PROGRAM FILES (X86)\WINDOWS KITS\8.1\INCLUDE\UM\OLEIDL.H
C:\PROGRAM FILES (X86)\WINDOWS KITS\8.1\INCLUDE\UM\SERVPROV.H
C:\PROGRAM FILES (X86)\WINDOWS KITS\8.1\INCLUDE\UM\MSXML.H
C:\PROGRAM FILES (X86)\WINDOWS KITS\8.1\INCLUDE\UM\OAIDL.H
C:\PROGRAM FILES (X86)\WINDOWS KITS\8.1\INCLUDE\UM\PROPIDL.H
C:\PROGRAM FILES (X86)\WINDOWS KITS\8.1\INCLUDE\UM\OLEAUTO.H
C:\PROGRAM FILES (X86)\WINDOWS KITS\8.1\INCLUDE\UM\COMMDLG.H
C:\PROGRAM FILES (X86)\WINDOWS KITS\8.1\INCLUDE\SHARED\STRALIGN.H
C:\PROGRAM FILES (X86)\WINDOWS KITS\8.1\INCLUDE\UM\WINSVC.H
C:\PROGRAM FILES (X86)\WINDOWS KITS\8.1\INCLUDE\UM\MCX.H
C:\PROGRAM FILES (X86)\WINDOWS KITS\8.1\INCLUDE\UM\IMM.H
C:\PROGRAM FILES (X86)\WINDOWS KITS\8.1\INCLUDE\UM\IME_CMODES.H
D:\LABS\4 YR\DIPLOMA\LIFE2.0\LIFE2.0\GPU.H
D:\LABS\4 YR\DIPLOMA\LIFE2.0\OPENCL\INCLUDE\CL\CL.HPP
C:\PROGRAM FILES (X86)\WINDOWS KITS\8.1\INCLUDE\UM\GL\GL.H
D:\LABS\4 YR\DIPLOMA\LIFE2.0\OPENCL\INCLUDE\CL\OPENCL.H
D:\LABS\4 YR\DIPLOMA\LIFE2.0\OPENCL\INCLUDE\CL\CL.H
D:\LABS\4 YR\DIPLOMA\LIFE2.0\OPENCL\INCLUDE\CL\CL_PLATFORM.H
D:\LABS\4 YR\DIPLOMA\LIFE2.0\OPENCL\INCLUDE\CL\CL_GL.H
D:\LABS\4 YR\DIPLOMA\LIFE2.0\OPENCL\INCLUDE\CL\CL_GL_EXT.H
D:\LABS\4 YR\DIPLOMA\LIFE2.0\OPENCL\INCLUDE\CL\CL_EXT.H
C:\PROGRAM FILES (X86)\MICROSOFT VISUAL STUDIO 14.0\VC\INCLUDE\FSTREAM
C:\PROGRAM FILES (X86)\MICROSOFT VISUAL STUDIO 14.0\VC\INCLUDE\CHRONO
C:\PROGRAM FILES (X86)\MICROSOFT VISUAL STUDIO 14.0\VC\INCLUDE\RATIO
C:\PROGRAM FILES (X86)\MICROSOFT VISUAL STUDIO 14.0\VC\INCLUDE\THR\XTIMEC.H
C:\PROGRAM FILES (X86)\MICROSOFT VISUAL STUDIO 14.0\VC\INCLUDE\THR\XTHRCOMMON.H
C:\PROGRAM FILES (X86)\MICROSOFT VISUAL STUDIO 14.0\VC\INCLUDE\IOSTREAM
^D:\LABS\4 YR\DIPLOMA\LIFE2.0\LIFE2.0\GPU.CPP
D:\LABS\4 YR\DIPLOMA\LIFE2.0\LIFE2.0\GPU.H
D:\LABS\4 YR\DIPLOMA\LIFE2.0\OPENCL\INCLUDE\CL\CL.HPP
C:\PROGRAM FILES (X86)\WINDOWS KITS\8.1\INCLUDE\UM\WINDOWS.H
C:\PROGRAM FILES (X86)\WINDOWS KITS\8.1\INCLUDE\SHARED\WINAPIFAMILY.H
C:\PROGRAM FILES (X86)\WINDOWS KITS\8.1\INCLUDE\SHARED\SDKDDKVER.H
C:\PROGRAM FILES (X86)\MICROSOFT VISUAL STUDIO 14.0\VC\INCLUDE\EXCPT.H
C:\PROGRAM FILES (X86)\MICROSOFT VISUAL STUDIO 14.0\VC\INCLUDE\VCRUNTIME.H
C:\PROGRAM FILES (X86)\MICROSOFT VISUAL STUDIO 14.0\VC\INCLUDE\SAL.H
C:\PROGRAM FILES (X86)\MICROSOFT VISUAL STUDIO 14.0\VC\INCLUDE\CONCURRENCYSAL.H
C:\PROGRAM FILES (X86)\MICROSOFT VISUAL STUDIO 14.0\VC\INCLUDE\VADEFS.H
C:\PROGRAM FILES (X86)\MICROSOFT VISUAL STUDIO 14.0\VC\INCLUDE\STDARG.H
C:\PROGRAM FILES (X86)\WINDOWS KITS\8.1\INCLUDE\SHARED\WINDEF.H
C:\PROGRAM FILES (X86)\WINDOWS KITS\8.1\INCLUDE\SHARED\MINWINDEF.H
C:\PROGRAM FILES (X86)\WINDOWS KITS\8.1\INCLUDE\SHARED\SPECSTRINGS.H
C:\PROGRAM FILES (X86)\WINDOWS KITS\8.1\INCLUDE\SHARED\SPECSTRINGS_STRICT.H
C:\PROGRAM FILES (X86)\WINDOWS KITS\8.1\INCLUDE\SHARED\SPECSTRINGS_UNDEF.H
C:\PROGRAM FILES (X86)\WINDOWS KITS\8.1\INCLUDE\SHARED\DRIVERSPECS.H
C:\PROGRAM FILES (X86)\WINDOWS KITS\8.1\INCLUDE\SHARED\SDV_DRIVERSPECS.H
C:\PROGRAM FILES (X86)\WINDOWS KITS\8.1\INCLUDE\UM\WINNT.H
C:\PROGRAM FILES (X86)\WINDOWS KITS\10\INCLUDE\10.0.10240.0\UCRT\CTYPE.H
C:\PROGRAM FILES (X86)\WINDOWS KITS\10\INCLUDE\10.0.10240.0\UCRT\CORECRT.H
C:\PROGRAM FILES (X86)\WINDOWS KITS\10\INCLUDE\10.0.10240.0\UCRT\CORECRT_WCTYPE.H
C:\PROGRAM FILES (X86)\WINDOWS KITS\8.1\INCLUDE\SHARED\KERNELSPECS.H
C:\PROGRAM FILES (X86)\WINDOWS KITS\8.1\INCLUDE\SHARED\BASETSD.H
C:\PROGRAM FILES (X86)\WINDOWS KITS\8.1\INCLUDE\SHARED\GUIDDEF.H
C:\PROGRAM FILES (X86)\WINDOWS KITS\10\INCLUDE\10.0.10240.0\UCRT\STRING.H
C:\PROGRAM FILES (X86)\WINDOWS KITS\10\INCLUDE\10.0.10240.0\UCRT\CORECRT_MEMORY.H
C:\PROGRAM FILES (X86)\WINDOWS KITS\10\INCLUDE\10.0.10240.0\UCRT\CORECRT_MEMCPY_S.H
C:\PROGRAM FILES (X86)\WINDOWS KITS\10\INCLUDE\10.0.10240.0\UCRT\ERRNO.H
C:\PROGRAM FILES (X86)\MICROSOFT VISUAL STUDIO 14.0\VC\INCLUDE\VCRUNTIME_STRING.H
C:\PROGRAM FILES (X86)\WINDOWS KITS\10\INCLUDE\10.0.10240.0\UCRT\CORECRT_WSTRING.H
C:\PROGRAM FILES (X86)\WINDOWS KITS\8.1\INCLUDE\SHARED\PSHPACK4.H
C:\PROGRAM FILES (X86)\WINDOWS KITS\8.1\INCLUDE\SHARED\POPPACK.H
C:\PROGRAM FILES (X86)\WINDOWS KITS\8.1\INCLUDE\SHARED\PSHPACK2.H
C:\PROGRAM FILES (X86)\WINDOWS KITS\8.1\INCLUDE\SHARED\PSHPACK8.H
C:\PROGRAM FILES (X86)\WINDOWS KITS\8.1\INCLUDE\SHARED\APISET.H
C:\PROGRAM FILES (X86)\WINDOWS KITS\8.1\INCLUDE\SHARED\KTMTYPES.H
C:\PROGRAM FILES (X86)\WINDOWS KITS\8.1\INCLUDE\UM\WINBASE.H
C:\PROGRAM FILES (X86)\WINDOWS KITS\8.1\INCLUDE\SHARED\APISETCCONV.H
C:\PROGRAM FILES (X86)\WINDOWS KITS\8.1\INCLUDE\UM\MINWINBASE.H
C:\PROGRAM FILES (X86)\WINDOWS KITS\8.1\INCLUDE\UM\PROCESSENV.H
C:\PROGRAM FILES (X86)\WINDOWS KITS\8.1\INCLUDE\UM\FILEAPI.H
C:\PROGRAM FILES (X86)\WINDOWS KITS\8.1\INCLUDE\UM\DEBUGAPI.H
C:\PROGRAM FILES (X86)\WINDOWS KITS\8.1\INCLUDE\UM\UTILAPISET.H
C:\PROGRAM FILES (X86)\WINDOWS KITS\8.1\INCLUDE\UM\HANDLEAPI.H
C:\PROGRAM FILES (X86)\WINDOWS KITS\8.1\INCLUDE\UM\ERRHANDLINGAPI.H
C:\PROGRAM FILES (X86)\WINDOWS KITS\8.1\INCLUDE\UM\FIBERSAPI.H
C:\PROGRAM FILES (X86)\WINDOWS KITS\8.1\INCLUDE\UM\NAMEDPIPEAPI.H
C:\PROGRAM FILES (X86)\WINDOWS KITS\8.1\INCLUDE\UM\PROFILEAPI.H
C:\PROGRAM FILES (X86)\WINDOWS KITS\8.1\INCLUDE\UM\HEAPAPI.H
C:\PROGRAM FILES (X86)\WINDOWS KITS\8.1\INCLUDE\UM\IOAPISET.H
C:\PROGRAM FILES (X86)\WINDOWS KITS\8.1\INCLUDE\UM\SYNCHAPI.H
C:\PROGRAM FILES (X86)\WINDOWS KITS\8.1\INCLUDE\UM\INTERLOCKEDAPI.H
C:\PROGRAM FILES (X86)\WINDOWS KITS\8.1\INCLUDE\UM\PROCESSTHREADSAPI.H
C:\PROGRAM FILES (X86)\WINDOWS KITS\8.1\INCLUDE\UM\SYSINFOAPI.H
C:\PROGRAM FILES (X86)\WINDOWS KITS\8.1\INCLUDE\UM\MEMORYAPI.H
C:\PROGRAM FILES (X86)\WINDOWS KITS\8.1\INCLUDE\UM\THREADPOOLLEGACYAPISET.H
C:\PROGRAM FILES (X86)\WINDOWS KITS\8.1\INCLUDE\UM\THREADPOOLAPISET.H
C:\PROGRAM FILES (X86)\WINDOWS KITS\8.1\INCLUDE\UM\BEMAPISET.H
C:\PROGRAM FILES (X86)\WINDOWS KITS\8.1\INCLUDE\UM\JOBAPI.H
C:\PROGRAM FILES (X86)\WINDOWS KITS\8.1\INCLUDE\UM\WOW64APISET.H
C:\PROGRAM FILES (X86)\WINDOWS KITS\8.1\INCLUDE\UM\LIBLOADERAPI.H
C:\PROGRAM FILES (X86)\WINDOWS KITS\8.1\INCLUDE\UM\SECURITYBASEAPI.H
C:\PROGRAM FILES (X86)\WINDOWS KITS\8.1\INCLUDE\UM\NAMESPACEAPI.H
C:\PROGRAM FILES (X86)\WINDOWS KITS\8.1\INCLUDE\UM\SYSTEMTOPOLOGYAPI.H
C:\PROGRAM FILES (X86)\WINDOWS KITS\8.1\INCLUDE\UM\PROCESSTOPOLOGYAPI.H
C:\PROGRAM FILES (X86)\WINDOWS KITS\8.1\INCLUDE\UM\SECURITYAPPCONTAINER.H
C:\PROGRAM FILES (X86)\WINDOWS KITS\8.1\INCLUDE\UM\REALTIMEAPISET.H
C:\PROGRAM FILES (X86)\WINDOWS KITS\8.1\INCLUDE\SHARED\WINERROR.H
C:\PROGRAM FILES (X86)\WINDOWS KITS\8.1\INCLUDE\UM\TIMEZONEAPI.H
C:\PROGRAM FILES (X86)\WINDOWS KITS\8.1\INCLUDE\UM\WINGDI.H
C:\PROGRAM FILES (X86)\WINDOWS KITS\8.1\INCLUDE\SHARED\PSHPACK1.H
C:\PROGRAM FILES (X86)\WINDOWS KITS\8.1\INCLUDE\UM\WINUSER.H
C:\PROGRAM FILES (X86)\WINDOWS KITS\8.1\INCLUDE\SHARED\TVOUT.H
C:\PROGRAM FILES (X86)\WINDOWS KITS\8.1\INCLUDE\UM\WINNLS.H
C:\PROGRAM FILES (X86)\WINDOWS KITS\8.1\INCLUDE\UM\DATETIMEAPI.H
C:\PROGRAM FILES (X86)\WINDOWS KITS\8.1\INCLUDE\UM\STRINGAPISET.H
C:\PROGRAM FILES (X86)\WINDOWS KITS\8.1\INCLUDE\UM\WINCON.H
C:\PROGRAM FILES (X86)\WINDOWS KITS\8.1\INCLUDE\UM\CONSOLEAPI.H
C:\PROGRAM FILES (X86)\WINDOWS KITS\8.1\INCLUDE\UM\WINVER.H
C:\PROGRAM FILES (X86)\WINDOWS KITS\8.1\INCLUDE\UM\VERRSRC.H
C:\PROGRAM FILES (X86)\WINDOWS KITS\8.1\INCLUDE\UM\WINREG.H
C:\PROGRAM FILES (X86)\WINDOWS KITS\8.1\INCLUDE\UM\REASON.H
C:\PROGRAM FILES (X86)\WINDOWS KITS\8.1\INCLUDE\UM\WINNETWK.H
C:\PROGRAM FILES (X86)\WINDOWS KITS\8.1\INCLUDE\SHARED\WNNC.H
C:\PROGRAM FILES (X86)\WINDOWS KITS\8.1\INCLUDE\SHARED\CDERR.H
C:\PROGRAM FILES (X86)\WINDOWS KITS\8.1\INCLUDE\UM\DDE.H
C:\PROGRAM FILES (X86)\WINDOWS KITS\8.1\INCLUDE\UM\DDEML.H
C:\PROGRAM FILES (X86)\WINDOWS KITS\8.1\INCLUDE\UM\DLGS.H
C:\PROGRAM FILES (X86)\WINDOWS KITS\8.1\INCLUDE\UM\LZEXPAND.H
C:\PROGRAM FILES (X86)\WINDOWS KITS\8.1\INCLUDE\UM\MMSYSTEM.H
C:\PROGRAM FILES (X86)\WINDOWS KITS\8.1\INCLUDE\UM\MMSYSCOM.H
C:\PROGRAM FILES (X86)\WINDOWS KITS\8.1\INCLUDE\UM\MCIAPI.H
C:\PROGRAM FILES (X86)\WINDOWS KITS\8.1\INCLUDE\UM\MMISCAPI.H
C:\PROGRAM FILES (X86)\WINDOWS KITS\8.1\INCLUDE\UM\MMISCAPI2.H
C:\PROGRAM FILES (X86)\WINDOWS KITS\8.1\INCLUDE\UM\PLAYSOUNDAPI.H
C:\PROGRAM FILES (X86)\WINDOWS KITS\8.1\INCLUDE\UM\MMEAPI.H
C:\PROGRAM FILES (X86)\WINDOWS KITS\8.1\INCLUDE\UM\TIMEAPI.H
C:\PROGRAM FILES (X86)\WINDOWS KITS\8.1\INCLUDE\UM\JOYSTICKAPI.H
C:\PROGRAM FILES (X86)\WINDOWS KITS\8.1\INCLUDE\UM\NB30.H
C:\PROGRAM FILES (X86)\WINDOWS KITS\8.1\INCLUDE\SHARED\RPC.H
C:\PROGRAM FILES (X86)\WINDOWS KITS\8.1\INCLUDE\SHARED\RPCDCE.H
C:\PROGRAM FILES (X86)\WINDOWS KITS\8.1\INCLUDE\SHARED\RPCDCEP.H
C:\PROGRAM FILES (X86)\WINDOWS KITS\8.1\INCLUDE\UM\RPCNSI.H
C:\PROGRAM FILES (X86)\WINDOWS KITS\8.1\INCLUDE\SHARED\RPCNTERR.H
C:\PROGRAM FILES (X86)\WINDOWS KITS\8.1\INCLUDE\SHARED\RPCASYNC.H
C:\PROGRAM FILES (X86)\WINDOWS KITS\8.1\INCLUDE\UM\SHELLAPI.H
C:\PROGRAM FILES (X86)\WINDOWS KITS\8.1\INCLUDE\UM\WINPERF.H
C:\PROGRAM FILES (X86)\WINDOWS KITS\8.1\INCLUDE\UM\WINSOCK.H
C:\PROGRAM FILES (X86)\WINDOWS KITS\8.1\INCLUDE\SHARED\INADDR.H
C:\PROGRAM FILES (X86)\WINDOWS KITS\8.1\INCLUDE\UM\WINCRYPT.H
C:\PROGRAM FILES (X86)\WINDOWS KITS\8.1\INCLUDE\SHARED\BCRYPT.H
C:\PROGRAM FILES (X86)\WINDOWS KITS\8.1\INCLUDE\UM\NCRYPT.H
C:\PROGRAM FILES (X86)\WINDOWS KITS\8.1\INCLUDE\UM\DPAPI.H
C:\PROGRAM FILES (X86)\WINDOWS KITS\8.1\INCLUDE\UM\WINEFS.H
C:\PROGRAM FILES (X86)\WINDOWS KITS\8.1\INCLUDE\UM\WINSCARD.H
C:\PROGRAM FILES (X86)\WINDOWS KITS\8.1\INCLUDE\SHARED\WTYPES.H
C:\PROGRAM FILES (X86)\WINDOWS KITS\8.1\INCLUDE\SHARED\RPCNDR.H
C:\PROGRAM FILES (X86)\WINDOWS KITS\8.1\INCLUDE\UM\RPCNSIP.H
C:\PROGRAM FILES (X86)\WINDOWS KITS\8.1\INCLUDE\SHARED\RPCSAL.H
C:\PROGRAM FILES (X86)\WINDOWS KITS\8.1\INCLUDE\SHARED\WTYPESBASE.H
C:\PROGRAM FILES (X86)\WINDOWS KITS\8.1\INCLUDE\UM\WINIOCTL.H
C:\PROGRAM FILES (X86)\WINDOWS KITS\8.1\INCLUDE\SHARED\WINSMCRD.H
C:\PROGRAM FILES (X86)\WINDOWS KITS\8.1\INCLUDE\UM\WINSPOOL.H
C:\PROGRAM FILES (X86)\WINDOWS KITS\8.1\INCLUDE\UM\PRSHT.H
C:\PROGRAM FILES (X86)\WINDOWS KITS\8.1\INCLUDE\UM\OLE2.H
C:\PROGRAM FILES (X86)\WINDOWS KITS\8.1\INCLUDE\UM\OBJBASE.H
C:\PROGRAM FILES (X86)\WINDOWS KITS\8.1\INCLUDE\UM\COMBASEAPI.H
C:\PROGRAM FILES (X86)\WINDOWS KITS\10\INCLUDE\10.0.10240.0\UCRT\STDLIB.H
C:\PROGRAM FILES (X86)\WINDOWS KITS\10\INCLUDE\10.0.10240.0\UCRT\CORECRT_MALLOC.H
C:\PROGRAM FILES (X86)\WINDOWS KITS\10\INCLUDE\10.0.10240.0\UCRT\CORECRT_SEARCH.H
C:\PROGRAM FILES (X86)\WINDOWS KITS\10\INCLUDE\10.0.10240.0\UCRT\STDDEF.H
C:\PROGRAM FILES (X86)\WINDOWS KITS\10\INCLUDE\10.0.10240.0\UCRT\CORECRT_WSTDLIB.H
C:\PROGRAM FILES (X86)\MICROSOFT VISUAL STUDIO 14.0\VC\INCLUDE\LIMITS.H
C:\PROGRAM FILES (X86)\WINDOWS KITS\8.1\INCLUDE\UM\UNKNWNBASE.H
C:\PROGRAM FILES (X86)\WINDOWS KITS\8.1\INCLUDE\UM\OBJIDLBASE.H
C:\PROGRAM FILES (X86)\WINDOWS KITS\8.1\INCLUDE\UM\CGUID.H
C:\PROGRAM FILES (X86)\WINDOWS KITS\8.1\INCLUDE\UM\OBJIDL.H
C:\PROGRAM FILES (X86)\WINDOWS KITS\8.1\INCLUDE\UM\UNKNWN.H
C:\PROGRAM FILES (X86)\WINDOWS KITS\8.1\INCLUDE\UM\URLMON.H
C:\PROGRAM FILES (X86)\WINDOWS KITS\8.1\INCLUDE\UM\OLEIDL.H
C:\PROGRAM FILES (X86)\WINDOWS KITS\8.1\INCLUDE\UM\SERVPROV.H
C:\PROGRAM FILES (X86)\WINDOWS KITS\8.1\INCLUDE\UM\MSXML.H
C:\PROGRAM FILES (X86)\WINDOWS KITS\8.1\INCLUDE\UM\OAIDL.H
C:\PROGRAM FILES (X86)\WINDOWS KITS\8.1\INCLUDE\UM\PROPIDL.H
C:\PROGRAM FILES (X86)\WINDOWS KITS\8.1\INCLUDE\UM\OLEAUTO.H
C:\PROGRAM FILES (X86)\WINDOWS KITS\8.1\INCLUDE\UM\COMMDLG.H
C:\PROGRAM FILES (X86)\WINDOWS KITS\8.1\INCLUDE\SHARED\STRALIGN.H
C:\PROGRAM FILES (X86)\WINDOWS KITS\8.1\INCLUDE\UM\WINSVC.H
C:\PROGRAM FILES (X86)\WINDOWS KITS\8.1\INCLUDE\UM\MCX.H
C:\PROGRAM FILES (X86)\WINDOWS KITS\8.1\INCLUDE\UM\IMM.H
C:\PROGRAM FILES (X86)\WINDOWS KITS\8.1\INCLUDE\UM\IME_CMODES.H
C:\PROGRAM FILES (X86)\WINDOWS KITS\10\INCLUDE\10.0.10240.0\UCRT\MALLOC.H
C:\PROGRAM FILES (X86)\MICROSOFT VISUAL STUDIO 14.0\VC\INCLUDE\ITERATOR
C:\PROGRAM FILES (X86)\MICROSOFT VISUAL STUDIO 14.0\VC\INCLUDE\ISTREAM
C:\PROGRAM FILES (X86)\MICROSOFT VISUAL STUDIO 14.0\VC\INCLUDE\OSTREAM
C:\PROGRAM FILES (X86)\MICROSOFT VISUAL STUDIO 14.0\VC\INCLUDE\IOS
C:\PROGRAM FILES (X86)\MICROSOFT VISUAL STUDIO 14.0\VC\INCLUDE\XLOCNUM
C:\PROGRAM FILES (X86)\MICROSOFT VISUAL STUDIO 14.0\VC\INCLUDE\CLIMITS
C:\PROGRAM FILES (X86)\MICROSOFT VISUAL STUDIO 14.0\VC\INCLUDE\YVALS.H
C:\PROGRAM FILES (X86)\MICROSOFT VISUAL STUDIO 14.0\VC\INCLUDE\XKEYCHECK.H
C:\PROGRAM FILES (X86)\MICROSOFT VISUAL STUDIO 14.0\VC\INCLUDE\CRTDEFS.H
C:\PROGRAM FILES (X86)\MICROSOFT VISUAL STUDIO 14.0\VC\INCLUDE\USE_ANSI.H
C:\PROGRAM FILES (X86)\MICROSOFT VISUAL STUDIO 14.0\VC\INCLUDE\CMATH
C:\PROGRAM FILES (X86)\WINDOWS KITS\10\INCLUDE\10.0.10240.0\UCRT\MATH.H
C:\PROGRAM FILES (X86)\MICROSOFT VISUAL STUDIO 14.0\VC\INCLUDE\XTGMATH.H
C:\PROGRAM FILES (X86)\MICROSOFT VISUAL STUDIO 14.0\VC\INCLUDE\XTR1COMMON
C:\PROGRAM FILES (X86)\MICROSOFT VISUAL STUDIO 14.0\VC\INCLUDE\CSTDLIB
C:\PROGRAM FILES (X86)\MICROSOFT VISUAL STUDIO 14.0\VC\INCLUDE\CSTDIO
C:\PROGRAM FILES (X86)\WINDOWS KITS\10\INCLUDE\10.0.10240.0\UCRT\STDIO.H
C:\PROGRAM FILES (X86)\WINDOWS KITS\10\INCLUDE\10.0.10240.0\UCRT\CORECRT_WSTDIO.H
C:\PROGRAM FILES (X86)\WINDOWS KITS\10\INCLUDE\10.0.10240.0\UCRT\CORECRT_STDIO_CONFIG.H
C:\PROGRAM FILES (X86)\MICROSOFT VISUAL STUDIO 14.0\VC\INCLUDE\STREAMBUF
C:\PROGRAM FILES (X86)\MICROSOFT VISUAL STUDIO 14.0\VC\INCLUDE\XIOSBASE
C:\PROGRAM FILES (X86)\MICROSOFT VISUAL STUDIO 14.0\VC\INCLUDE\XLOCALE
C:\PROGRAM FILES (X86)\MICROSOFT VISUAL STUDIO 14.0\VC\INCLUDE\CSTRING
C:\PROGRAM FILES (X86)\MICROSOFT VISUAL STUDIO 14.0\VC\INCLUDE\STDEXCEPT
C:\PROGRAM FILES (X86)\MICROSOFT VISUAL STUDIO 14.0\VC\INCLUDE\EXCEPTION
C:\PROGRAM FILES (X86)\MICROSOFT VISUAL STUDIO 14.0\VC\INCLUDE\TYPE_TRAITS
C:\PROGRAM FILES (X86)\MICROSOFT VISUAL STUDIO 14.0\VC\INCLUDE\XSTDDEF
C:\PROGRAM FILES (X86)\MICROSOFT VISUAL STUDIO 14.0\VC\INCLUDE\CSTDDEF
C:\PROGRAM FILES (X86)\MICROSOFT VISUAL STUDIO 14.0\VC\INCLUDE\INITIALIZER_LIST
C:\PROGRAM FILES (X86)\MICROSOFT VISUAL STUDIO 14.0\VC\INCLUDE\VCRUNTIME_EXCEPTION.H
C:\PROGRAM FILES (X86)\MICROSOFT VISUAL STUDIO 14.0\VC\INCLUDE\EH.H
C:\PROGRAM FILES (X86)\WINDOWS KITS\10\INCLUDE\10.0.10240.0\UCRT\CORECRT_TERMINATE.H
C:\PROGRAM FILES (X86)\MICROSOFT VISUAL STUDIO 14.0\VC\INCLUDE\XSTRING
C:\PROGRAM FILES (X86)\MICROSOFT VISUAL STUDIO 14.0\VC\INCLUDE\XMEMORY0
C:\PROGRAM FILES (X86)\MICROSOFT VISUAL STUDIO 14.0\VC\INCLUDE\CSTDINT
C:\PROGRAM FILES (X86)\MICROSOFT VISUAL STUDIO 14.0\VC\INCLUDE\STDINT.H
C:\PROGRAM FILES (X86)\MICROSOFT VISUAL STUDIO 14.0\VC\INCLUDE\LIMITS
C:\PROGRAM FILES (X86)\MICROSOFT VISUAL STUDIO 14.0\VC\INCLUDE\YMATH.H
C:\PROGRAM FILES (X86)\MICROSOFT VISUAL STUDIO 14.0\VC\INCLUDE\CFLOAT
C:\PROGRAM FILES (X86)\WINDOWS KITS\10\INCLUDE\10.0.10240.0\UCRT\FLOAT.H
C:\PROGRAM FILES (X86)\MICROSOFT VISUAL STUDIO 14.0\VC\INCLUDE\CWCHAR
C:\PROGRAM FILES (X86)\WINDOWS KITS\10\INCLUDE\10.0.10240.0\UCRT\WCHAR.H
C:\PROGRAM FILES (X86)\WINDOWS KITS\10\INCLUDE\10.0.10240.0\UCRT\CORECRT_WCONIO.H
C:\PROGRAM FILES (X86)\WINDOWS KITS\10\INCLUDE\10.0.10240.0\UCRT\CORECRT_WDIRECT.H
C:\PROGRAM FILES (X86)\WINDOWS KITS\10\INCLUDE\10.0.10240.0\UCRT\CORECRT_WIO.H
C:\PROGRAM FILES (X86)\WINDOWS KITS\10\INCLUDE\10.0.10240.0\UCRT\CORECRT_SHARE.H
C:\PROGRAM FILES (X86)\WINDOWS KITS\10\INCLUDE\10.0.10240.0\UCRT\CORECRT_WPROCESS.H
C:\PROGRAM FILES (X86)\WINDOWS KITS\10\INCLUDE\10.0.10240.0\UCRT\CORECRT_WTIME.H
C:\PROGRAM FILES (X86)\WINDOWS KITS\10\INCLUDE\10.0.10240.0\UCRT\SYS\STAT.H
C:\PROGRAM FILES (X86)\WINDOWS KITS\10\INCLUDE\10.0.10240.0\UCRT\SYS\TYPES.H
C:\PROGRAM FILES (X86)\MICROSOFT VISUAL STUDIO 14.0\VC\INCLUDE\NEW
C:\PROGRAM FILES (X86)\MICROSOFT VISUAL STUDIO 14.0\VC\INCLUDE\VCRUNTIME_NEW.H
C:\PROGRAM FILES (X86)\MICROSOFT VISUAL STUDIO 14.0\VC\INCLUDE\XUTILITY
C:\PROGRAM FILES (X86)\MICROSOFT VISUAL STUDIO 14.0\VC\INCLUDE\UTILITY
C:\PROGRAM FILES (X86)\MICROSOFT VISUAL STUDIO 14.0\VC\INCLUDE\IOSFWD
C:\PROGRAM FILES (X86)\WINDOWS KITS\10\INCLUDE\10.0.10240.0\UCRT\CRTDBG.H
C:\PROGRAM FILES (X86)\MICROSOFT VISUAL STUDIO 14.0\VC\INCLUDE\VCRUNTIME_NEW_DEBUG.H
C:\PROGRAM FILES (X86)\MICROSOFT VISUAL STUDIO 14.0\VC\INCLUDE\XATOMIC0.H
C:\PROGRAM FILES (X86)\MICROSOFT VISUAL STUDIO 14.0\VC\INCLUDE\INTRIN.H
C:\PROGRAM FILES (X86)\MICROSOFT VISUAL STUDIO 14.0\VC\INCLUDE\SETJMP.H
C:\PROGRAM FILES (X86)\MICROSOFT VISUAL STUDIO 14.0\VC\INCLUDE\IMMINTRIN.H
C:\PROGRAM FILES (X86)\MICROSOFT VISUAL STUDIO 14.0\VC\INCLUDE\WMMINTRIN.H
C:\PROGRAM FILES (X86)\MICROSOFT VISUAL STUDIO 14.0\VC\INCLUDE\NMMINTRIN.H
C:\PROGRAM FILES (X86)\MICROSOFT VISUAL STUDIO 14.0\VC\INCLUDE\SMMINTRIN.H
C:\PROGRAM FILES (X86)\MICROSOFT VISUAL STUDIO 14.0\VC\INCLUDE\TMMINTRIN.H
C:\PROGRAM FILES (X86)\MICROSOFT VISUAL STUDIO 14.0\VC\INCLUDE\PMMINTRIN.H
C:\PROGRAM FILES (X86)\MICROSOFT VISUAL STUDIO 14.0\VC\INCLUDE\EMMINTRIN.H
C:\PROGRAM FILES (X86)\MICROSOFT VISUAL STUDIO 14.0\VC\INCLUDE\XMMINTRIN.H
C:\PROGRAM FILES (X86)\MICROSOFT VISUAL STUDIO 14.0\VC\INCLUDE\MMINTRIN.H
C:\PROGRAM FILES (X86)\MICROSOFT VISUAL STUDIO 14.0\VC\INCLUDE\AMMINTRIN.H
C:\PROGRAM FILES (X86)\MICROSOFT VISUAL STUDIO 14.0\VC\INCLUDE\MM3DNOW.H
C:\PROGRAM FILES (X86)\MICROSOFT VISUAL STUDIO 14.0\VC\INCLUDE\TYPEINFO
C:\PROGRAM FILES (X86)\MICROSOFT VISUAL STUDIO 14.0\VC\INCLUDE\VCRUNTIME_TYPEINFO.H
C:\PROGRAM FILES (X86)\MICROSOFT VISUAL STUDIO 14.0\VC\INCLUDE\XLOCINFO
C:\PROGRAM FILES (X86)\MICROSOFT VISUAL STUDIO 14.0\VC\INCLUDE\XLOCINFO.H
C:\PROGRAM FILES (X86)\WINDOWS KITS\10\INCLUDE\10.0.10240.0\UCRT\LOCALE.H
C:\PROGRAM FILES (X86)\MICROSOFT VISUAL STUDIO 14.0\VC\INCLUDE\XFACET
C:\PROGRAM FILES (X86)\MICROSOFT VISUAL STUDIO 14.0\VC\INCLUDE\SYSTEM_ERROR
C:\PROGRAM FILES (X86)\MICROSOFT VISUAL STUDIO 14.0\VC\INCLUDE\CERRNO
C:\PROGRAM FILES (X86)\WINDOWS KITS\10\INCLUDE\10.0.10240.0\UCRT\SHARE.H
C:\PROGRAM FILES (X86)\WINDOWS KITS\8.1\INCLUDE\UM\GL\GL.H
D:\LABS\4 YR\DIPLOMA\LIFE2.0\OPENCL\INCLUDE\CL\OPENCL.H
D:\LABS\4 YR\DIPLOMA\LIFE2.0\OPENCL\INCLUDE\CL\CL.H
D:\LABS\4 YR\DIPLOMA\LIFE2.0\OPENCL\INCLUDE\CL\CL_PLATFORM.H
D:\LABS\4 YR\DIPLOMA\LIFE2.0\OPENCL\INCLUDE\CL\CL_GL.H
D:\LABS\4 YR\DIPLOMA\LIFE2.0\OPENCL\INCLUDE\CL\CL_GL_EXT.H
D:\LABS\4 YR\DIPLOMA\LIFE2.0\OPENCL\INCLUDE\CL\CL_EXT.H
C:\PROGRAM FILES (X86)\MICROSOFT VISUAL STUDIO 14.0\VC\INCLUDE\VECTOR
C:\PROGRAM FILES (X86)\MICROSOFT VISUAL STUDIO 14.0\VC\INCLUDE\XMEMORY
C:\PROGRAM FILES (X86)\MICROSOFT VISUAL STUDIO 14.0\VC\INCLUDE\STRING
D:\LABS\4 YR\DIPLOMA\LIFE2.0\LIFE2.0\LOGIC.H
C:\PROGRAM FILES (X86)\MICROSOFT VISUAL STUDIO 14.0\VC\INCLUDE\FSTREAM
C:\PROGRAM FILES (X86)\MICROSOFT VISUAL STUDIO 14.0\VC\INCLUDE\CHRONO
C:\PROGRAM FILES (X86)\MICROSOFT VISUAL STUDIO 14.0\VC\INCLUDE\RATIO
C:\PROGRAM FILES (X86)\WINDOWS KITS\10\INCLUDE\10.0.10240.0\UCRT\TIME.H
C:\PROGRAM FILES (X86)\MICROSOFT VISUAL STUDIO 14.0\VC\INCLUDE\THR\XTIMEC.H
C:\PROGRAM FILES (X86)\MICROSOFT VISUAL STUDIO 14.0\VC\INCLUDE\THR\XTHRCOMMON.H
C:\WINDOWS\GLOBALIZATION\SORTING\SORTDEFAULT.NLS
C:\PROGRAM FILES (X86)\MICROSOFT VISUAL STUDIO 14.0\VC\BIN\1033\CLUI.DLL
C:\WINDOWS\SYSTEM32\TZRES.DLL
C:\PROGRAM FILES (X86)\MICROSOFT VISUAL STUDIO 14.0\VC\BIN\MSPDBSRV.EXE
